EESchema Schematic File Version 2
LIBS:power
LIBS:device
LIBS:transistors
LIBS:conn
LIBS:linear
LIBS:regul
LIBS:74xx
LIBS:cmos4000
LIBS:adc-dac
LIBS:memory
LIBS:xilinx
LIBS:microcontrollers
LIBS:dsp
LIBS:microchip
LIBS:analog_switches
LIBS:motorola
LIBS:texas
LIBS:intel
LIBS:audio
LIBS:interface
LIBS:digital-audio
LIBS:philips
LIBS:display
LIBS:cypress
LIBS:siliconi
LIBS:opto
LIBS:atmel
LIBS:contrib
LIBS:valves
LIBS:ICL7660SCPAZ
LIBS:INA826
LIBS:lmv321
LIBS:wzmacniacz-cache
EELAYER 25 0
EELAYER END
$Descr A4 11693 8268
encoding utf-8
Sheet 1 1
Title ""
Date ""
Rev ""
Comp ""
Comment1 ""
Comment2 ""
Comment3 ""
Comment4 ""
$EndDescr
$Comp
L INA826 U2
U 1 1 59F9DCA9
P 2150 2350
F 0 "U2" H 2150 2350 50  0001 L BNN
F 1 "INA826" H 2150 2350 50  0001 L BNN
F 2 "111:VSSOP-8" H 2150 2350 50  0001 L BNN
F 3 "Texas Instruments" H 2150 2350 50  0001 L BNN
F 4 "2.54 USD" H 2150 2350 50  0001 L BNN "Price"
F 5 "MSOP-8 Texas Instruments" H 2150 2350 50  0001 L BNN "Package"
F 6 "Good" H 2150 2350 50  0001 L BNN "Availability"
F 7 "INA826AIDGK" H 2150 2350 50  0001 L BNN "MP"
F 8 "Precision, 200-A Supply Current, 36-V Supply Instrumentation Amplifier 8-VSSOP -40 to 125" H 2150 2350 50  0001 L BNN "Description"
	1    2150 2350
	1    0    0    -1  
$EndComp
$Comp
L GND #PWR4
U 1 1 59F9DFFE
P 2550 1850
F 0 "#PWR4" H 2550 1600 50  0001 C CNN
F 1 "GND" H 2550 1700 50  0000 C CNN
F 2 "" H 2550 1850 50  0001 C CNN
F 3 "" H 2550 1850 50  0001 C CNN
	1    2550 1850
	1    0    0    -1  
$EndComp
$Comp
L +5V #PWR2
U 1 1 59F9E049
P 2050 1450
F 0 "#PWR2" H 2050 1300 50  0001 C CNN
F 1 "+5V" H 2050 1590 50  0000 C CNN
F 2 "" H 2050 1450 50  0001 C CNN
F 3 "" H 2050 1450 50  0001 C CNN
	1    2050 1450
	1    0    0    -1  
$EndComp
$Comp
L C C3
U 1 1 59F9E075
P 2300 2850
F 0 "C3" V 2450 2750 50  0000 L CNN
F 1 "100nF" V 2150 2750 50  0000 L CNN
F 2 "111:0805" H 2338 2700 50  0001 C CNN
F 3 "" H 2300 2850 50  0001 C CNN
	1    2300 2850
	0    -1   -1   0   
$EndComp
$Comp
L GND #PWR5
U 1 1 59F9E0A2
P 2550 2950
F 0 "#PWR5" H 2550 2700 50  0001 C CNN
F 1 "GND" H 2550 2800 50  0000 C CNN
F 2 "" H 2550 2950 50  0001 C CNN
F 3 "" H 2550 2950 50  0001 C CNN
	1    2550 2950
	1    0    0    -1  
$EndComp
$Comp
L -5V #PWR3
U 1 1 59F9E0BC
P 2050 2950
F 0 "#PWR3" H 2050 3050 50  0001 C CNN
F 1 "-5V" H 2050 3100 50  0000 C CNN
F 2 "" H 2050 2950 50  0001 C CNN
F 3 "" H 2050 2950 50  0001 C CNN
	1    2050 2950
	-1   0    0    1   
$EndComp
$Comp
L ICL7660SCPAZ U3
U 1 1 59F9ED08
P 7350 2100
F 0 "U3" H 7750 2750 50  0000 L BNN
F 1 "ICL7660SCPAZ" H 7100 2750 50  0000 L BNN
F 2 "Housings_DIP:DIP-8_W7.62mm_LongPads" H 7350 2100 50  0001 L BNN
F 3 "ICL7660SCPAZ" H 7350 2100 50  0001 L BNN
F 4 "1.21 USD" H 7350 2100 50  0001 L BNN "Price"
F 5 "Intersil" H 7350 2100 50  0001 L BNN "MF"
F 6 "DIP-8 Intersil" H 7350 2100 50  0001 L BNN "Package"
F 7 "ICL7660 Series 1.5 - 12 Vin 45 mA 10-35 kHz CMOS Voltage Converter - PDIP-8" H 7350 2100 50  0001 L BNN "Description"
F 8 "Good" H 7350 2100 50  0001 L BNN "Availability"
	1    7350 2100
	1    0    0    -1  
$EndComp
$Comp
L +5V #PWR22
U 1 1 59F9ED6C
P 6550 1600
F 0 "#PWR22" H 6550 1450 50  0001 C CNN
F 1 "+5V" H 6550 1740 50  0000 C CNN
F 2 "" H 6550 1600 50  0001 C CNN
F 3 "" H 6550 1600 50  0001 C CNN
	1    6550 1600
	1    0    0    -1  
$EndComp
$Comp
L -5V #PWR28
U 1 1 59F9EE2D
P 8150 1600
F 0 "#PWR28" H 8150 1700 50  0001 C CNN
F 1 "-5V" H 8150 1750 50  0000 C CNN
F 2 "" H 8150 1600 50  0001 C CNN
F 3 "" H 8150 1600 50  0001 C CNN
	1    8150 1600
	1    0    0    -1  
$EndComp
$Comp
L C C6
U 1 1 59F9EE55
P 8150 1950
F 0 "C6" H 8175 2050 50  0000 L CNN
F 1 "10uF" H 8175 1850 50  0000 L CNN
F 2 "111:0805" H 8188 1800 50  0001 C CNN
F 3 "" H 8150 1950 50  0001 C CNN
	1    8150 1950
	1    0    0    -1  
$EndComp
$Comp
L GND #PWR29
U 1 1 59F9EF36
P 8150 2200
F 0 "#PWR29" H 8150 1950 50  0001 C CNN
F 1 "GND" H 8150 2050 50  0000 C CNN
F 2 "" H 8150 2200 50  0001 C CNN
F 3 "" H 8150 2200 50  0001 C CNN
	1    8150 2200
	1    0    0    -1  
$EndComp
$Comp
L C C5
U 1 1 59F9F230
P 6450 2150
F 0 "C5" H 6475 2250 50  0000 L CNN
F 1 "10uF" H 6475 2050 50  0000 L CNN
F 2 "111:0805" H 6488 2000 50  0001 C CNN
F 3 "" H 6450 2150 50  0001 C CNN
	1    6450 2150
	1    0    0    -1  
$EndComp
Wire Wire Line
	1550 2550 1300 2550
Wire Wire Line
	1300 2150 1550 2150
Wire Wire Line
	6650 2200 6600 2200
Wire Wire Line
	6600 2200 6600 2300
Wire Wire Line
	6600 2300 6450 2300
Wire Wire Line
	6650 2100 6600 2100
Wire Wire Line
	6600 2100 6600 2000
Wire Wire Line
	6600 2000 6450 2000
Wire Wire Line
	6550 1700 6650 1700
Wire Wire Line
	1300 2150 1300 2300
Wire Wire Line
	1300 2300 1200 2300
Wire Wire Line
	1200 2400 1300 2400
Wire Wire Line
	1300 2400 1300 2550
$Comp
L CONN_01X03 P1
U 1 1 59FB34EE
P 1000 2300
F 0 "P1" H 1000 2500 50  0000 C CNN
F 1 "Elektrody" V 1100 2300 50  0000 C CNN
F 2 "111:GoldPin_1x3" H 1000 2300 60  0001 C CNN
F 3 "" H 1000 2300 60  0000 C CNN
	1    1000 2300
	-1   0    0    1   
$EndComp
Wire Wire Line
	1200 1750 1200 2200
Text Notes 1750 1050 0    118  ~ 24
Przedwzmacniacz
Wire Notes Line
	800  850  800  3200
Wire Notes Line
	800  3200 4200 3200
Wire Notes Line
	4200 3200 4200 850 
Wire Notes Line
	4200 850  800  850 
$Comp
L R R1
U 1 1 59FB4EE0
P 1450 2350
F 0 "R1" H 1550 2350 50  0000 C CNN
F 1 "100R" V 1450 2350 50  0000 C CNN
F 2 "111:0805" V 1380 2350 30  0001 C CNN
F 3 "" H 1450 2350 30  0000 C CNN
	1    1450 2350
	1    0    0    -1  
$EndComp
Wire Wire Line
	1550 2250 1550 2200
Wire Wire Line
	1550 2200 1450 2200
Wire Wire Line
	1550 2450 1550 2500
Wire Wire Line
	1550 2500 1450 2500
Wire Wire Line
	2050 2750 2050 2950
Wire Wire Line
	2150 2850 2050 2850
Connection ~ 2050 2850
Wire Wire Line
	2450 2850 2550 2850
Wire Wire Line
	2550 2850 2550 2950
Wire Wire Line
	2650 2350 2750 2350
Text GLabel 2750 2350 2    47   Output ~ 0
Wyjście_P
$Comp
L C C1
U 1 1 59FB8140
P 2300 1550
F 0 "C1" V 2450 1450 50  0000 L CNN
F 1 "100nF" V 2150 1450 50  0000 L CNN
F 2 "111:0805" H 2338 1400 50  0001 C CNN
F 3 "" H 2300 1550 50  0001 C CNN
	1    2300 1550
	0    -1   -1   0   
$EndComp
Wire Wire Line
	2050 1450 2050 1850
Wire Wire Line
	2050 1550 2150 1550
Connection ~ 2050 1550
Wire Wire Line
	2150 1850 2150 1750
Wire Wire Line
	1200 1750 2550 1750
Wire Wire Line
	2550 1550 2550 1850
Wire Wire Line
	2550 1550 2450 1550
Connection ~ 2550 1750
Connection ~ 2150 1750
Text Notes 5850 1100 0    118  ~ 24
Przetwornica DC-DC
Wire Notes Line
	4900 3200 4900 850 
Wire Notes Line
	4900 850  8500 850 
Wire Notes Line
	8500 850  8500 3200
Wire Notes Line
	8500 3200 4900 3200
Wire Wire Line
	8150 1600 8150 1800
Wire Wire Line
	8050 1700 8150 1700
Connection ~ 8150 1700
Wire Wire Line
	8150 2200 8150 2100
Wire Wire Line
	6650 2700 6550 2700
Wire Wire Line
	6550 2700 6550 2800
$Comp
L GND #PWR23
U 1 1 59FBC070
P 6550 2800
F 0 "#PWR23" H 6550 2550 50  0001 C CNN
F 1 "GND" H 6550 2650 50  0000 C CNN
F 2 "" H 6550 2800 50  0001 C CNN
F 3 "" H 6550 2800 50  0001 C CNN
	1    6550 2800
	1    0    0    -1  
$EndComp
NoConn ~ 6650 1900
NoConn ~ 6650 2300
NoConn ~ 6650 2500
Wire Wire Line
	6550 1600 6550 1700
$Comp
L LMV321 U1
U 1 1 5A05814D
P 2550 4800
F 0 "U1" H 2900 5050 60  0000 C CNN
F 1 "LMV321" H 2550 4800 60  0000 C CNN
F 2 "111:SOT-23-5" H 2550 4800 60  0001 C CNN
F 3 "" H 2550 4800 60  0000 C CNN
	1    2550 4800
	1    0    0    -1  
$EndComp
$Comp
L LMV321 U4
U 1 1 5A0582A0
P 5250 5100
F 0 "U4" H 5600 5350 60  0000 C CNN
F 1 "LMV321" H 5250 5100 60  0000 C CNN
F 2 "111:SOT-23-5" H 5250 5100 60  0001 C CNN
F 3 "" H 5250 5100 60  0000 C CNN
	1    5250 5100
	1    0    0    -1  
$EndComp
Wire Wire Line
	2550 5300 2550 5550
Wire Wire Line
	2550 4100 2550 4300
$Comp
L POT RV1
U 1 1 5A058B6F
P 1900 5350
F 0 "RV1" H 1900 5250 50  0000 C CNN
F 1 "POT" H 1900 5350 50  0000 C CNN
F 2 "111:Potencjometr_SMD" H 1900 5350 60  0001 C CNN
F 3 "" H 1900 5350 60  0000 C CNN
	1    1900 5350
	1    0    0    -1  
$EndComp
$Comp
L CONN_01X04 P2
U 1 1 5A058EE1
P 3400 2200
F 0 "P2" H 3400 1950 50  0000 C CNN
F 1 "Złącze" V 3500 2200 50  0000 C CNN
F 2 "111:GoldPin_1x4" H 3400 2200 60  0001 C CNN
F 3 "" H 3400 2200 60  0000 C CNN
	1    3400 2200
	-1   0    0    1   
$EndComp
Text GLabel 3700 2050 2    47   Output ~ 0
Wyjście_P
$Comp
L GND #PWR13
U 1 1 5A059194
P 3900 2450
F 0 "#PWR13" H 3900 2200 50  0001 C CNN
F 1 "GND" H 3900 2300 50  0000 C CNN
F 2 "" H 3900 2450 50  0001 C CNN
F 3 "" H 3900 2450 50  0001 C CNN
	1    3900 2450
	1    0    0    -1  
$EndComp
$Comp
L +5V #PWR12
U 1 1 5A059320
P 3900 1850
F 0 "#PWR12" H 3900 1700 50  0001 C CNN
F 1 "+5V" H 3900 1990 50  0000 C CNN
F 2 "" H 3900 1850 50  0001 C CNN
F 3 "" H 3900 1850 50  0001 C CNN
	1    3900 1850
	1    0    0    -1  
$EndComp
$Comp
L -5V #PWR11
U 1 1 5A0594F9
P 3700 2450
F 0 "#PWR11" H 3700 2550 50  0001 C CNN
F 1 "-5V" H 3700 2600 50  0000 C CNN
F 2 "" H 3700 2450 50  0001 C CNN
F 3 "" H 3700 2450 50  0001 C CNN
	1    3700 2450
	-1   0    0    1   
$EndComp
Wire Wire Line
	3600 2050 3700 2050
Wire Wire Line
	3600 2250 3900 2250
$Comp
L CONN_01X04 P3
U 1 1 5A059DC0
P 5700 2200
F 0 "P3" H 5700 1950 50  0000 C CNN
F 1 "Złącze" V 5800 2200 50  0000 C CNN
F 2 "111:GoldPin_1x4" H 5700 2200 60  0001 C CNN
F 3 "" H 5700 2200 60  0000 C CNN
	1    5700 2200
	1    0    0    1   
$EndComp
Text GLabel 5400 2350 0    47   Input ~ 0
Wejście_P
$Comp
L GND #PWR20
U 1 1 5A059DC7
P 5400 2600
F 0 "#PWR20" H 5400 2350 50  0001 C CNN
F 1 "GND" H 5400 2450 50  0000 C CNN
F 2 "" H 5400 2600 50  0001 C CNN
F 3 "" H 5400 2600 50  0001 C CNN
	1    5400 2600
	-1   0    0    -1  
$EndComp
$Comp
L +5V #PWR16
U 1 1 5A059DCD
P 5200 1950
F 0 "#PWR16" H 5200 1800 50  0001 C CNN
F 1 "+5V" H 5200 2090 50  0000 C CNN
F 2 "" H 5200 1950 50  0001 C CNN
F 3 "" H 5200 1950 50  0001 C CNN
	1    5200 1950
	-1   0    0    -1  
$EndComp
$Comp
L -5V #PWR19
U 1 1 5A059DD3
P 5400 1950
F 0 "#PWR19" H 5400 2050 50  0001 C CNN
F 1 "-5V" H 5400 2100 50  0000 C CNN
F 2 "" H 5400 1950 50  0001 C CNN
F 3 "" H 5400 1950 50  0001 C CNN
	1    5400 1950
	-1   0    0    -1  
$EndComp
Wire Wire Line
	5200 2250 5500 2250
$Comp
L CONN_01X04 P4
U 1 1 5A05A315
P 7600 5050
F 0 "P4" H 7600 4800 50  0000 C CNN
F 1 "Złącze" V 7700 5050 50  0000 C CNN
F 2 "111:GoldPin_1x4" H 7600 5050 60  0001 C CNN
F 3 "" H 7600 5050 60  0000 C CNN
	1    7600 5050
	1    0    0    -1  
$EndComp
Wire Wire Line
	7400 5100 7300 5100
Wire Wire Line
	7400 5200 7300 5200
Wire Wire Line
	7300 5200 7300 5300
Wire Wire Line
	7400 4900 7300 4900
Wire Wire Line
	7300 4900 7300 4800
Wire Wire Line
	7400 5000 7100 5000
Wire Wire Line
	7100 5000 7100 4800
$Comp
L +5V #PWR26
U 1 1 5A05A9B9
P 7300 4800
F 0 "#PWR26" H 7300 4650 50  0001 C CNN
F 1 "+5V" H 7300 4940 50  0000 C CNN
F 2 "" H 7300 4800 50  0001 C CNN
F 3 "" H 7300 4800 50  0001 C CNN
	1    7300 4800
	-1   0    0    -1  
$EndComp
$Comp
L GND #PWR27
U 1 1 5A05AAD5
P 7300 5300
F 0 "#PWR27" H 7300 5050 50  0001 C CNN
F 1 "GND" H 7300 5150 50  0000 C CNN
F 2 "" H 7300 5300 50  0001 C CNN
F 3 "" H 7300 5300 50  0001 C CNN
	1    7300 5300
	-1   0    0    -1  
$EndComp
Text GLabel 7300 5100 0    47   Input ~ 0
Wyjście
$Comp
L +3.3V #PWR25
U 1 1 5A05B760
P 7100 4800
F 0 "#PWR25" H 7100 4650 50  0001 C CNN
F 1 "+3.3V" H 7100 4940 50  0000 C CNN
F 2 "" H 7100 4800 60  0000 C CNN
F 3 "" H 7100 4800 60  0000 C CNN
	1    7100 4800
	-1   0    0    -1  
$EndComp
Wire Wire Line
	1900 5200 1900 5100
Wire Wire Line
	1900 5100 2000 5100
Wire Wire Line
	2150 5350 3550 5350
Wire Wire Line
	3550 4800 3550 5600
Wire Wire Line
	3450 4800 3650 4800
Wire Wire Line
	1650 5350 1550 5350
Wire Wire Line
	1550 5350 1550 5450
$Comp
L GND #PWR1
U 1 1 5A05C4F8
P 1550 5450
F 0 "#PWR1" H 1550 5200 50  0001 C CNN
F 1 "GND" H 1550 5300 50  0000 C CNN
F 2 "" H 1550 5450 50  0001 C CNN
F 3 "" H 1550 5450 50  0001 C CNN
	1    1550 5450
	1    0    0    -1  
$EndComp
Connection ~ 3550 4800
Wire Wire Line
	2000 4500 1900 4500
$Comp
L +5V #PWR6
U 1 1 5A05CE9B
P 2550 4100
F 0 "#PWR6" H 2550 3950 50  0001 C CNN
F 1 "+5V" H 2550 4240 50  0000 C CNN
F 2 "" H 2550 4100 50  0001 C CNN
F 3 "" H 2550 4100 50  0001 C CNN
	1    2550 4100
	1    0    0    -1  
$EndComp
Text GLabel 1500 4500 0    47   Input ~ 0
Wejście_P
$Comp
L -5V #PWR7
U 1 1 5A05D306
P 2550 5550
F 0 "#PWR7" H 2550 5650 50  0001 C CNN
F 1 "-5V" H 2550 5700 50  0000 C CNN
F 2 "" H 2550 5550 50  0001 C CNN
F 3 "" H 2550 5550 50  0001 C CNN
	1    2550 5550
	-1   0    0    1   
$EndComp
$Comp
L +3.3V #PWR17
U 1 1 5A05DCD1
P 5250 4400
F 0 "#PWR17" H 5250 4250 50  0001 C CNN
F 1 "+3.3V" H 5250 4540 50  0000 C CNN
F 2 "" H 5250 4400 60  0000 C CNN
F 3 "" H 5250 4400 60  0000 C CNN
	1    5250 4400
	1    0    0    -1  
$EndComp
Wire Wire Line
	5250 4400 5250 4600
$Comp
L GND #PWR18
U 1 1 5A05DFC4
P 5250 5700
F 0 "#PWR18" H 5250 5450 50  0001 C CNN
F 1 "GND" H 5250 5550 50  0000 C CNN
F 2 "" H 5250 5700 50  0001 C CNN
F 3 "" H 5250 5700 50  0001 C CNN
	1    5250 5700
	1    0    0    -1  
$EndComp
Wire Wire Line
	5250 5700 5250 5600
$Comp
L R R4
U 1 1 5A05EAF0
P 3800 4800
F 0 "R4" V 3700 4850 50  0000 C CNN
F 1 "0R" V 3800 4800 50  0000 C CNN
F 2 "111:0805" V 3730 4800 30  0001 C CNN
F 3 "" H 3800 4800 30  0000 C CNN
	1    3800 4800
	0    1    1    0   
$EndComp
$Comp
L R R2
U 1 1 5A05ECB5
P 1750 4500
F 0 "R2" V 1650 4550 50  0000 C CNN
F 1 "0R" V 1750 4500 50  0000 C CNN
F 2 "111:0805" V 1680 4500 30  0001 C CNN
F 3 "" H 1750 4500 30  0000 C CNN
	1    1750 4500
	0    1    1    0   
$EndComp
Wire Wire Line
	1600 4500 1500 4500
Wire Wire Line
	3950 4800 4050 4800
$Comp
L R R7
U 1 1 5A05F7A3
P 4200 4800
F 0 "R7" V 4100 4850 50  0000 C CNN
F 1 "1K" V 4200 4800 50  0000 C CNN
F 2 "111:0805" V 4130 4800 30  0001 C CNN
F 3 "" H 4200 4800 30  0000 C CNN
	1    4200 4800
	0    1    1    0   
$EndComp
$Comp
L R R6
U 1 1 5A05FC9C
P 4200 4300
F 0 "R6" V 4300 4200 50  0000 C CNN
F 1 "1K" V 4200 4300 50  0000 C CNN
F 2 "111:0805" V 4130 4300 30  0001 C CNN
F 3 "" H 4200 4300 30  0000 C CNN
	1    4200 4300
	0    -1   -1   0   
$EndComp
$Comp
L GND #PWR14
U 1 1 5A05FDF8
P 4450 4400
F 0 "#PWR14" H 4450 4150 50  0001 C CNN
F 1 "GND" H 4450 4250 50  0000 C CNN
F 2 "" H 4450 4400 50  0001 C CNN
F 3 "" H 4450 4400 50  0001 C CNN
	1    4450 4400
	1    0    0    -1  
$EndComp
$Comp
L R R3
U 1 1 5A060366
P 3800 4300
F 0 "R3" V 3900 4200 50  0000 C CNN
F 1 "1K" V 3800 4300 50  0000 C CNN
F 2 "111:0805" V 3730 4300 30  0001 C CNN
F 3 "" H 3800 4300 30  0000 C CNN
	1    3800 4300
	0    -1   -1   0   
$EndComp
Wire Wire Line
	4450 4400 4450 4300
Wire Wire Line
	4450 4300 4350 4300
$Comp
L R R5
U 1 1 5A060C00
P 4200 4000
F 0 "R5" V 4300 3900 50  0000 C CNN
F 1 "1K" V 4200 4000 50  0000 C CNN
F 2 "111:0805" V 4130 4000 30  0001 C CNN
F 3 "" H 4200 4000 30  0000 C CNN
	1    4200 4000
	0    -1   -1   0   
$EndComp
$Comp
L +3.3V #PWR10
U 1 1 5A060F9F
P 3550 4200
F 0 "#PWR10" H 3550 4050 50  0001 C CNN
F 1 "+3.3V" H 3550 4340 50  0000 C CNN
F 2 "" H 3550 4200 60  0000 C CNN
F 3 "" H 3550 4200 60  0000 C CNN
	1    3550 4200
	1    0    0    -1  
$EndComp
Wire Wire Line
	3650 4300 3550 4300
Wire Wire Line
	3550 4300 3550 4200
Wire Wire Line
	3950 4300 4050 4300
Wire Wire Line
	4050 4000 4000 4000
Wire Wire Line
	4000 4000 4000 4300
Connection ~ 4000 4300
Wire Wire Line
	4350 4000 4600 4000
Wire Wire Line
	4600 4000 4600 4800
Wire Wire Line
	4350 4800 4700 4800
$Comp
L R R9
U 1 1 5A061DA1
P 5250 6100
F 0 "R9" V 5150 6150 50  0000 C CNN
F 1 "1K" V 5250 6100 50  0000 C CNN
F 2 "111:0805" V 5180 6100 30  0001 C CNN
F 3 "" H 5250 6100 30  0000 C CNN
	1    5250 6100
	0    1    1    0   
$EndComp
Wire Wire Line
	4350 5400 4700 5400
$Comp
L R R8
U 1 1 5A062A00
P 4600 5650
F 0 "R8" V 4500 5700 50  0000 C CNN
F 1 "1K" V 4600 5650 50  0000 C CNN
F 2 "111:0805" V 4530 5650 30  0001 C CNN
F 3 "" H 4600 5650 30  0000 C CNN
	1    4600 5650
	-1   0    0    1   
$EndComp
$Comp
L GND #PWR15
U 1 1 5A062E9C
P 4600 5900
F 0 "#PWR15" H 4600 5650 50  0001 C CNN
F 1 "GND" H 4600 5750 50  0000 C CNN
F 2 "" H 4600 5900 50  0001 C CNN
F 3 "" H 4600 5900 50  0001 C CNN
	1    4600 5900
	1    0    0    -1  
$EndComp
Wire Wire Line
	4600 5900 4600 5800
Wire Wire Line
	4600 5500 4600 5400
Wire Wire Line
	4350 5400 4350 6100
Wire Wire Line
	4350 6100 5100 6100
Connection ~ 4600 5400
Wire Wire Line
	5400 6100 6250 6100
Wire Wire Line
	6250 6100 6250 5100
Wire Wire Line
	6150 5100 6350 5100
Connection ~ 4600 4800
Connection ~ 6250 5100
$Comp
L C C2
U 1 1 5A065916
P 2800 4200
F 0 "C2" V 2700 4250 50  0000 L CNN
F 1 "100nF" V 2950 4100 50  0000 L CNN
F 2 "111:0805" H 2838 4050 30  0001 C CNN
F 3 "" H 2800 4200 60  0000 C CNN
	1    2800 4200
	0    1    1    0   
$EndComp
Wire Wire Line
	2650 4200 2550 4200
Connection ~ 2550 4200
Wire Wire Line
	2950 4200 3050 4200
Wire Wire Line
	3050 4200 3050 4300
$Comp
L GND #PWR8
U 1 1 5A0665A9
P 3050 4300
F 0 "#PWR8" H 3050 4050 50  0001 C CNN
F 1 "GND" H 3050 4150 50  0000 C CNN
F 2 "" H 3050 4300 50  0001 C CNN
F 3 "" H 3050 4300 50  0001 C CNN
	1    3050 4300
	1    0    0    -1  
$EndComp
$Comp
L C C4
U 1 1 5A066E75
P 2800 5450
F 0 "C4" V 2700 5500 50  0000 L CNN
F 1 "100nF" V 2950 5350 50  0000 L CNN
F 2 "111:0805" H 2838 5300 30  0001 C CNN
F 3 "" H 2800 5450 60  0000 C CNN
	1    2800 5450
	0    1    1    0   
$EndComp
Wire Wire Line
	2650 5450 2550 5450
Connection ~ 2550 5450
Wire Wire Line
	2950 5450 3050 5450
Wire Wire Line
	3050 5450 3050 5550
$Comp
L GND #PWR9
U 1 1 5A06761D
P 3050 5550
F 0 "#PWR9" H 3050 5300 50  0001 C CNN
F 1 "GND" H 3050 5400 50  0000 C CNN
F 2 "" H 3050 5550 50  0001 C CNN
F 3 "" H 3050 5550 50  0001 C CNN
	1    3050 5550
	1    0    0    -1  
$EndComp
$Comp
L C C7
U 1 1 5A067839
P 5500 4500
F 0 "C7" V 5400 4550 50  0000 L CNN
F 1 "100nF" V 5650 4400 50  0000 L CNN
F 2 "111:0805" H 5538 4350 30  0001 C CNN
F 3 "" H 5500 4500 60  0000 C CNN
	1    5500 4500
	0    1    1    0   
$EndComp
Wire Wire Line
	5350 4500 5250 4500
Connection ~ 5250 4500
Wire Wire Line
	5650 4500 5750 4500
Wire Wire Line
	5750 4500 5750 4600
$Comp
L GND #PWR21
U 1 1 5A0686C2
P 5750 4600
F 0 "#PWR21" H 5750 4350 50  0001 C CNN
F 1 "GND" H 5750 4450 50  0000 C CNN
F 2 "" H 5750 4600 50  0001 C CNN
F 3 "" H 5750 4600 50  0001 C CNN
	1    5750 4600
	1    0    0    -1  
$EndComp
Text GLabel 6350 5100 2    47   Output ~ 0
Wyjście
Text Notes 4000 3650 0    118  ~ 24
Wzmacniacze
Wire Notes Line
	900  6250 900  3350
Wire Notes Line
	900  3350 8050 3350
Wire Notes Line
	8050 3350 8050 6250
Wire Notes Line
	8050 6250 900  6250
Wire Wire Line
	3700 2450 3700 2350
Wire Wire Line
	3700 2350 3600 2350
Wire Wire Line
	3900 2250 3900 2450
Wire Wire Line
	3600 2150 4150 2150
Wire Wire Line
	4150 2150 4150 1950
Wire Wire Line
	4150 1950 3900 1950
Wire Wire Line
	3900 1950 3900 1850
$Comp
L CONN_01X02 P5
U 1 1 5A060F03
P 3550 5900
F 0 "P5" H 3550 6050 50  0000 C CNN
F 1 "Wyjście" V 3650 5900 50  0000 C CNN
F 2 "111:GoldPin_1x2" H 3550 5900 60  0001 C CNN
F 3 "" H 3550 5900 60  0000 C CNN
	1    3550 5900
	0    1    1    0   
$EndComp
Wire Wire Line
	3500 5700 3500 5600
Wire Wire Line
	3500 5600 3600 5600
Wire Wire Line
	3600 5600 3600 5700
Connection ~ 3550 5350
Connection ~ 3550 5600
Wire Wire Line
	5500 2350 5400 2350
Wire Wire Line
	4950 2150 5500 2150
Wire Wire Line
	4950 2150 4950 2500
Wire Wire Line
	4950 2500 5400 2500
Wire Wire Line
	5400 2500 5400 2600
Wire Wire Line
	5500 2050 5400 2050
Wire Wire Line
	5400 2050 5400 1950
Wire Wire Line
	5200 2250 5200 1950
$Comp
L CONN_01X02 P6
U 1 1 5A064CAC
P 6550 3950
F 0 "P6" H 6550 4100 50  0000 C CNN
F 1 "Wyjście" V 6650 3950 50  0000 C CNN
F 2 "111:GoldPin_1x2" H 6550 3950 60  0001 C CNN
F 3 "" H 6550 3950 60  0000 C CNN
	1    6550 3950
	0    -1   -1   0   
$EndComp
Wire Wire Line
	6500 4150 6500 4250
Wire Wire Line
	6500 4250 6600 4250
Wire Wire Line
	6600 4250 6600 4150
Wire Wire Line
	6550 4250 6550 4350
Connection ~ 6550 4250
$Comp
L GND #PWR24
U 1 1 5A065229
P 6550 4350
F 0 "#PWR24" H 6550 4100 50  0001 C CNN
F 1 "GND" H 6550 4200 50  0000 C CNN
F 2 "" H 6550 4350 50  0001 C CNN
F 3 "" H 6550 4350 50  0001 C CNN
	1    6550 4350
	-1   0    0    -1  
$EndComp
$EndSCHEMATC
