PCBNEW-LibModule-V1  
# encoding utf-8
Units mm
$INDEX
DIP254P762X533-8
$EndINDEX
$MODULE DIP254P762X533-8
Po 0 0 0 15 00000000 00000000 ~~
Li DIP254P762X533-8
Cd 
Sc 00000000
At STD
Op 0 0 0
.SolderMask 0
.SolderPaste 0
T0 -4.01342 -11.8371 1.64009 1.64009 0 0.05 N V 21 "DIP254P762X533-8"
T1 -2.05998 4.04366 1.64206 1.64206 0 0.05 N V 21 "VAL**"
DS -7.2898 1.27 -0.3302 1.27 0.1524 21
DS -0.3302 -8.89 -3.5052 -8.89 0.1524 21
DS -3.5052 -8.89 -4.1148 -8.89 0.1524 21
DS -4.1148 -8.89 -6.477 -8.89 0.1524 21
DA -3.81 -8.89 -4.1148 -8.89 -1800 0.1524 21
DS -7.366 -7.0612 -7.366 -8.1788 0 24
DS -7.366 -8.1788 -8.1788 -8.1788 0 24
DS -8.1788 -8.1788 -8.1788 -7.0612 0 24
DS -8.1788 -7.0612 -7.366 -7.0612 0 24
DS -7.366 -4.5212 -7.366 -5.6388 0 24
DS -7.366 -5.6388 -8.1788 -5.6388 0 24
DS -8.1788 -5.6388 -8.1788 -4.5212 0 24
DS -8.1788 -4.5212 -7.366 -4.5212 0 24
DS -7.366 -1.9812 -7.366 -3.0988 0 24
DS -7.366 -3.0988 -8.1788 -3.0988 0 24
DS -8.1788 -3.0988 -8.1788 -1.9812 0 24
DS -8.1788 -1.9812 -7.366 -1.9812 0 24
DS -7.366 0.5588 -7.366 -0.5588 0 24
DS -7.366 -0.5588 -8.1788 -0.5588 0 24
DS -8.1788 -0.5588 -8.1788 0.5588 0 24
DS -8.1788 0.5588 -7.366 0.5588 0 24
DS -0.254 -0.5588 -0.254 0.5588 0 24
DS -0.254 0.5588 0.5588 0.5588 0 24
DS 0.5588 0.5588 0.5588 -0.5588 0 24
DS 0.5588 -0.5588 -0.254 -0.5588 0 24
DS -0.254 -3.0988 -0.254 -1.9812 0 24
DS -0.254 -1.9812 0.5588 -1.9812 0 24
DS 0.5588 -1.9812 0.5588 -3.0988 0 24
DS 0.5588 -3.0988 -0.254 -3.0988 0 24
DS -0.254 -5.6388 -0.254 -4.5212 0 24
DS -0.254 -4.5212 0.5588 -4.5212 0 24
DS 0.5588 -4.5212 0.5588 -5.6388 0 24
DS 0.5588 -5.6388 -0.254 -5.6388 0 24
DS -0.254 -8.1788 -0.254 -7.0612 0 24
DS -0.254 -7.0612 0.5588 -7.0612 0 24
DS 0.5588 -7.0612 0.5588 -8.1788 0 24
DS 0.5588 -8.1788 -0.254 -8.1788 0 24
DS -7.366 1.27 -0.254 1.27 0 24
DS -0.254 1.27 -0.254 -8.89 0 24
DS -0.254 -8.89 -3.5052 -8.89 0 24
DS -3.5052 -8.89 -4.1148 -8.89 0 24
DS -4.1148 -8.89 -7.366 -8.89 0 24
DS -7.366 -8.89 -7.366 1.27 0 24
DA -3.81 -8.89 -4.1148 -8.89 -1800 0 24
$PAD
Sh "1" R 1.6764 1.6764 0 0 0
Dr 1.1176 0 0
At STD N 00E0FFFF
.SolderMask 0
Ne 0 ""
Po -7.62 -7.62
$EndPAD
$PAD
Sh "2" C 1.6764 1.6764 0 0 0
Dr 1.1176 0 0
At STD N 00E0FFFF
.SolderMask 0
Ne 0 ""
Po -7.62 -5.08
$EndPAD
$PAD
Sh "3" C 1.6764 1.6764 0 0 0
Dr 1.1176 0 0
At STD N 00E0FFFF
.SolderMask 0
Ne 0 ""
Po -7.62 -2.54
$EndPAD
$PAD
Sh "4" C 1.6764 1.6764 0 0 0
Dr 1.1176 0 0
At STD N 00E0FFFF
.SolderMask 0
Ne 0 ""
Po -7.62 0
$EndPAD
$PAD
Sh "5" C 1.6764 1.6764 0 0 0
Dr 1.1176 0 0
At STD N 00E0FFFF
.SolderMask 0
Ne 0 ""
Po 0 0
$EndPAD
$PAD
Sh "6" C 1.6764 1.6764 0 0 0
Dr 1.1176 0 0
At STD N 00E0FFFF
.SolderMask 0
Ne 0 ""
Po 0 -2.54
$EndPAD
$PAD
Sh "7" C 1.6764 1.6764 0 0 0
Dr 1.1176 0 0
At STD N 00E0FFFF
.SolderMask 0
Ne 0 ""
Po 0 -5.08
$EndPAD
$PAD
Sh "8" C 1.6764 1.6764 0 0 0
Dr 1.1176 0 0
At STD N 00E0FFFF
.SolderMask 0
Ne 0 ""
Po 0 -7.62
$EndPAD
$EndMODULE DIP254P762X533-8
