(export (version D)
  (design
    (source C:/Users/Piotrek/Desktop/Roboty_mobilne_repo/Elektronika/Plytka_glowna/Plytka_glowna/plytka_glowna.sch)
    (date "2017-11-14 18:27:08")
    (tool "Eeschema 4.0.0-rc2-stable")
    (sheet (number 1) (name /) (tstamps /)
      (title_block
        (title)
        (company)
        (rev)
        (date)
        (source plytka_glowna.sch)
        (comment (number 1) (value ""))
        (comment (number 2) (value ""))
        (comment (number 3) (value ""))
        (comment (number 4) (value "")))))
  (components
    (comp (ref C1)
      (value 100nF)
      (footprint 111:0805)
      (libsource (lib device) (part C))
      (sheetpath (names /) (tstamps /))
      (tstamp 59F87274))
    (comp (ref C6)
      (value 10uF)
      (footprint 111:Size_A)
      (libsource (lib device) (part CP))
      (sheetpath (names /) (tstamps /))
      (tstamp 59F87276))
    (comp (ref C2)
      (value 100nF)
      (footprint 111:0805)
      (libsource (lib device) (part C))
      (sheetpath (names /) (tstamps /))
      (tstamp 59F87277))
    (comp (ref C4)
      (value 100nF)
      (footprint 111:0805)
      (libsource (lib device) (part C))
      (sheetpath (names /) (tstamps /))
      (tstamp 59F87278))
    (comp (ref C3)
      (value 100nF)
      (footprint 111:0805)
      (libsource (lib device) (part C))
      (sheetpath (names /) (tstamps /))
      (tstamp 59F87279))
    (comp (ref U2)
      (value Bluetooth_HC-05)
      (footprint 111:GoldPin_1x4)
      (libsource (lib plytka_glowna-cache) (part Bluetooth_HC-05))
      (sheetpath (names /) (tstamps /))
      (tstamp 59F8E4E4))
    (comp (ref U6)
      (value MicroUSB-B)
      (footprint 111:GoldPin_1x5)
      (libsource (lib plytka_glowna-cache) (part MicroUSB-B))
      (sheetpath (names /) (tstamps /))
      (tstamp 59FFAA7C))
    (comp (ref U4)
      (value AP1117)
      (footprint 111:SOT-223)
      (libsource (lib regul) (part AP1117))
      (sheetpath (names /) (tstamps /))
      (tstamp 59FFAA81))
    (comp (ref U3)
      (value AP1117)
      (footprint 111:SOT-223)
      (libsource (lib regul) (part AP1117))
      (sheetpath (names /) (tstamps /))
      (tstamp 59FFAA86))
    (comp (ref D1)
      (value LED)
      (footprint LEDs:LED_0805)
      (libsource (lib plytka_glowna-cache) (part LED-RESCUE-schematpcb))
      (sheetpath (names /) (tstamps /))
      (tstamp 59FFAA8B))
    (comp (ref D2)
      (value LED)
      (footprint LEDs:LED_0805)
      (libsource (lib plytka_glowna-cache) (part LED-RESCUE-schematpcb))
      (sheetpath (names /) (tstamps /))
      (tstamp 59FFAA8D))
    (comp (ref D3)
      (value LED)
      (footprint LEDs:LED_0805)
      (libsource (lib plytka_glowna-cache) (part LED-RESCUE-schematpcb))
      (sheetpath (names /) (tstamps /))
      (tstamp 59FFAA8F))
    (comp (ref R1)
      (value 220R)
      (footprint 111:0805)
      (libsource (lib device) (part R))
      (sheetpath (names /) (tstamps /))
      (tstamp 59FFAA91))
    (comp (ref R2)
      (value 220R)
      (footprint 111:0805)
      (libsource (lib device) (part R))
      (sheetpath (names /) (tstamps /))
      (tstamp 59FFAA92))
    (comp (ref R3)
      (value 220R)
      (footprint 111:0805)
      (libsource (lib device) (part R))
      (sheetpath (names /) (tstamps /))
      (tstamp 59FFAA93))
    (comp (ref J1)
      (value CONN_01x02)
      (footprint 111:GoldPin_1x2)
      (libsource (lib plytka_glowna-cache) (part CONN_01x02))
      (sheetpath (names /) (tstamps /))
      (tstamp 59FFAA97))
    (comp (ref C11)
      (value 100nF)
      (footprint 111:0805)
      (libsource (lib device) (part C))
      (sheetpath (names /) (tstamps /))
      (tstamp 59FFAA9F))
    (comp (ref SW1)
      (value SW_Push)
      (footprint 111:Tact_switch_4x4mm)
      (libsource (lib plytka_glowna-cache) (part SW_Push))
      (sheetpath (names /) (tstamps /))
      (tstamp 59FFAAA1))
    (comp (ref U1)
      (value STM32F102C6Tx)
      (footprint Housings_QFP:LQFP-48_7x7mm_Pitch0.5mm)
      (libsource (lib plytka_glowna-cache) (part STM32F102C6Tx))
      (sheetpath (names /) (tstamps /))
      (tstamp 5A00A25C))
    (comp (ref U5)
      (value Wzmacniacz)
      (footprint 111:GoldPin_1x4)
      (libsource (lib plytka_glowna-cache) (part Wzmacniacz))
      (sheetpath (names /) (tstamps /))
      (tstamp 5A00C3EE))
    (comp (ref Y1)
      (value Crystal)
      (footprint Crystals:Crystal_SMD_HC49-SD)
      (libsource (lib device) (part Crystal))
      (sheetpath (names /) (tstamps /))
      (tstamp 5A09D6F5))
    (comp (ref C12)
      (value 22pF)
      (footprint 111:0805)
      (libsource (lib device) (part C))
      (sheetpath (names /) (tstamps /))
      (tstamp 5A09D6F8))
    (comp (ref C13)
      (value 22pF)
      (footprint 111:0805)
      (libsource (lib device) (part C))
      (sheetpath (names /) (tstamps /))
      (tstamp 5A09D6F9))
    (comp (ref U7)
      (value SPI)
      (footprint 111:GoldPin_1x3)
      (libsource (lib plytka_glowna-cache) (part SPI))
      (sheetpath (names /) (tstamps /))
      (tstamp 5A09D709))
    (comp (ref C7)
      (value 4.7uF)
      (footprint 111:Size_A)
      (libsource (lib device) (part CP))
      (sheetpath (names /) (tstamps /))
      (tstamp 5A0A35AB))
    (comp (ref C9)
      (value 4.7uF)
      (footprint 111:Size_A)
      (libsource (lib device) (part CP))
      (sheetpath (names /) (tstamps /))
      (tstamp 5A0A3A44))
    (comp (ref C8)
      (value 4.7uF)
      (footprint 111:Size_A)
      (libsource (lib device) (part CP))
      (sheetpath (names /) (tstamps /))
      (tstamp 5A0A3C84))
    (comp (ref C10)
      (value 4.7uF)
      (footprint 111:Size_A)
      (libsource (lib device) (part CP))
      (sheetpath (names /) (tstamps /))
      (tstamp 5A0A3D1C))
    (comp (ref P1)
      (value Programator)
      (footprint 111:Micro_USB_B_Gniazdo)
      (libsource (lib conn) (part CONN_01X05))
      (sheetpath (names /) (tstamps /))
      (tstamp 5A0B99D2))
    (comp (ref P2)
      (value "Wolne piny")
      (footprint 111:GoldPin_1x4)
      (libsource (lib conn) (part CONN_01X04))
      (sheetpath (names /) (tstamps /))
      (tstamp 5A0BE54E))
    (comp (ref P3)
      (value ADC)
      (footprint 111:GoldPin_1x2)
      (libsource (lib conn) (part CONN_01X02))
      (sheetpath (names /) (tstamps /))
      (tstamp 5A0C09A6)))
  (libparts
    (libpart (lib regul) (part AP1117)
      (aliases
        (alias AP1117D15)
        (alias AP1117D18)
        (alias AP1117D25)
        (alias AP1117D33)
        (alias AP1117D50)
        (alias AP1117E15)
        (alias AP1117E18)
        (alias AP1117E25)
        (alias AP1117E33)
        (alias AP1117E50)
        (alias AP1117K15)
        (alias AP1117K18)
        (alias AP1117K25)
        (alias AP1117K33)
        (alias AP1117K50)
        (alias AP1117T15)
        (alias AP1117T18)
        (alias AP1117T25)
        (alias AP1117T33)
        (alias AP1117T50)
        (alias AP1117Y15)
        (alias AP1117Y18)
        (alias AP1117Y25)
        (alias AP1117Y33)
        (alias AP1117Y50))
      (description "Fixed/Adjustable 1A Low Dropout regulator, Positive")
      (docs http://www.diodes.com/datasheets/AP1117.pdf)
      (footprints
        (fp SOT223)
        (fp SOT89-3)
        (fp TO220-3)
        (fp TO252)
        (fp TO263))
      (fields
        (field (name Reference) U)
        (field (name Value) AP1117))
      (pins
        (pin (num 1) (name GND/ADJ) (type power_in))
        (pin (num 2) (name VO) (type power_out))
        (pin (num 3) (name VI) (type power_in))))
    (libpart (lib plytka_glowna-cache) (part Bluetooth_HC-05)
      (fields
        (field (name Reference) U)
        (field (name Value) Bluetooth_HC-05))
      (pins
        (pin (num 1) (name VCC) (type input))
        (pin (num 2) (name RX) (type input))
        (pin (num 3) (name TX) (type input))
        (pin (num 4) (name GND) (type input))))
    (libpart (lib device) (part C)
      (description "Unpolarized capacitor")
      (footprints
        (fp C?)
        (fp C_????_*)
        (fp C_????)
        (fp SMD*_c)
        (fp Capacitor*))
      (fields
        (field (name Reference) C)
        (field (name Value) C))
      (pins
        (pin (num 1) (name ~) (type passive))
        (pin (num 2) (name ~) (type passive))))
    (libpart (lib conn) (part CONN_01X02)
      (footprints
        (fp Pin_Header_Straight_1X02)
        (fp Pin_Header_Angled_1X02)
        (fp Socket_Strip_Straight_1X02)
        (fp Socket_Strip_Angled_1X02))
      (fields
        (field (name Reference) P)
        (field (name Value) CONN_01X02))
      (pins
        (pin (num 1) (name P1) (type passive))
        (pin (num 2) (name P2) (type passive))))
    (libpart (lib conn) (part CONN_01X04)
      (footprints
        (fp Pin_Header_Straight_1X04)
        (fp Pin_Header_Angled_1X04)
        (fp Socket_Strip_Straight_1X04)
        (fp Socket_Strip_Angled_1X04))
      (fields
        (field (name Reference) P)
        (field (name Value) CONN_01X04))
      (pins
        (pin (num 1) (name P1) (type passive))
        (pin (num 2) (name P2) (type passive))
        (pin (num 3) (name P3) (type passive))
        (pin (num 4) (name P4) (type passive))))
    (libpart (lib conn) (part CONN_01X05)
      (footprints
        (fp Pin_Header_Straight_1X05)
        (fp Pin_Header_Angled_1X05)
        (fp Socket_Strip_Straight_1X05)
        (fp Socket_Strip_Angled_1X05))
      (fields
        (field (name Reference) P)
        (field (name Value) CONN_01X05))
      (pins
        (pin (num 1) (name P1) (type passive))
        (pin (num 2) (name P2) (type passive))
        (pin (num 3) (name P3) (type passive))
        (pin (num 4) (name P4) (type passive))
        (pin (num 5) (name P5) (type passive))))
    (libpart (lib plytka_glowna-cache) (part CONN_01x02)
      (fields
        (field (name Reference) J)
        (field (name Value) CONN_01x02))
      (pins
        (pin (num 1) (name 1) (type passive))
        (pin (num 2) (name 2) (type passive))))
    (libpart (lib device) (part CP)
      (description "Polarised capacitor")
      (footprints
        (fp CP*)
        (fp Elko*)
        (fp TantalC*)
        (fp C*elec)
        (fp c_elec*)
        (fp SMD*_Pol))
      (fields
        (field (name Reference) C)
        (field (name Value) CP))
      (pins
        (pin (num 1) (name ~) (type passive))
        (pin (num 2) (name ~) (type passive))))
    (libpart (lib device) (part Crystal)
      (description "Two pin crystal")
      (footprints
        (fp Crystal_*))
      (fields
        (field (name Reference) Y)
        (field (name Value) Crystal))
      (pins
        (pin (num 1) (name 1) (type passive))
        (pin (num 2) (name 2) (type passive))))
    (libpart (lib plytka_glowna-cache) (part LED-RESCUE-schematpcb)
      (footprints
        (fp LED-3MM)
        (fp LED-5MM)
        (fp LED-10MM)
        (fp LED-0603)
        (fp LED-0805)
        (fp LED-1206)
        (fp LEDV))
      (fields
        (field (name Reference) D)
        (field (name Value) LED-RESCUE-schematpcb))
      (pins
        (pin (num 1) (name K) (type passive))
        (pin (num 2) (name A) (type passive))))
    (libpart (lib plytka_glowna-cache) (part MicroUSB-B)
      (fields
        (field (name Reference) U)
        (field (name Value) MicroUSB-B))
      (pins
        (pin (num 1) (name VCC) (type input))
        (pin (num 2) (name GND) (type input))
        (pin (num 3) (name D+) (type input))
        (pin (num 4) (name D-) (type input))
        (pin (num 5) (name ID) (type input))))
    (libpart (lib device) (part R)
      (description Resistor)
      (footprints
        (fp R_*)
        (fp Resistor_*))
      (fields
        (field (name Reference) R)
        (field (name Value) R))
      (pins
        (pin (num 1) (name ~) (type passive))
        (pin (num 2) (name ~) (type passive))))
    (libpart (lib plytka_glowna-cache) (part SPI)
      (fields
        (field (name Reference) U)
        (field (name Value) SPI))
      (pins
        (pin (num 1) (name SPI_SCK) (type input))
        (pin (num 2) (name SPI_MISO) (type input))
        (pin (num 3) (name SPI_MOSI) (type input))))
    (libpart (lib plytka_glowna-cache) (part STM32F102C4Tx)
      (aliases
        (alias STM32F102C6Tx))
      (fields
        (field (name Reference) U)
        (field (name Value) STM32F102C4Tx)
        (field (name Footprint) Housings_QFP:LQFP-48_7x7mm_Pitch0.5mm))
      (pins
        (pin (num 1) (name VBAT) (type power_in))
        (pin (num 2) (name PC13/RTC_OUT/RTC_TAMPER) (type BiDi))
        (pin (num 3) (name PC14/RCC_OSC32_IN) (type BiDi))
        (pin (num 4) (name PC15/ADC1_EXTI15/RCC_OSC32_OUT) (type BiDi))
        (pin (num 5) (name PD0/RCC_OSC_IN) (type input))
        (pin (num 6) (name PD1/RCC_OSC_OUT) (type input))
        (pin (num 7) (name NRST) (type input))
        (pin (num 8) (name VSSA) (type power_in))
        (pin (num 9) (name VDDA) (type power_in))
        (pin (num 10) (name ADC1_IN0/SYS_WKUP/TIM2_CH1/TIM2_ETR/USART2_CTS/PA0) (type BiDi))
        (pin (num 11) (name ADC1_IN1/TIM2_CH2/USART2_RTS/PA1) (type BiDi))
        (pin (num 12) (name ADC1_IN2/TIM2_CH3/USART2_TX/PA2) (type BiDi))
        (pin (num 13) (name ADC1_IN3/TIM2_CH4/USART2_RX/PA3) (type BiDi))
        (pin (num 14) (name ADC1_IN4/SPI1_NSS/USART2_CK/PA4) (type BiDi))
        (pin (num 15) (name ADC1_IN5/SPI1_SCK/PA5) (type BiDi))
        (pin (num 16) (name ADC1_IN6/SPI1_MISO/TIM3_CH1/PA6) (type BiDi))
        (pin (num 17) (name ADC1_IN7/SPI1_MOSI/TIM3_CH2/PA7) (type BiDi))
        (pin (num 18) (name PB0/ADC1_IN8/TIM3_CH3) (type BiDi))
        (pin (num 19) (name PB1/ADC1_IN9/TIM3_CH4) (type BiDi))
        (pin (num 20) (name PB2/BOOT1) (type BiDi))
        (pin (num 21) (name PB10/TIM2_CH3) (type BiDi))
        (pin (num 22) (name PB11/ADC1_EXTI11/TIM2_CH4) (type BiDi))
        (pin (num 23) (name VSS) (type power_in))
        (pin (num 24) (name VDD) (type power_in))
        (pin (num 25) (name PB12) (type BiDi))
        (pin (num 26) (name PB13) (type BiDi))
        (pin (num 27) (name PB14) (type BiDi))
        (pin (num 28) (name PB15/ADC1_EXTI15) (type BiDi))
        (pin (num 29) (name RCC_MCO/USART1_CK/PA8) (type BiDi))
        (pin (num 30) (name USART1_TX/PA9) (type BiDi))
        (pin (num 31) (name USART1_RX/PA10) (type BiDi))
        (pin (num 32) (name ADC1_EXTI11/USART1_CTS/USB_DM/PA11) (type BiDi))
        (pin (num 33) (name USART1_RTS/USB_DP/PA12) (type BiDi))
        (pin (num 34) (name SYS_JTMS-SWDIO/PA13) (type BiDi))
        (pin (num 35) (name VSS) (type power_in))
        (pin (num 36) (name VDD) (type power_in))
        (pin (num 37) (name SYS_JTCK-SWCLK/PA14) (type BiDi))
        (pin (num 38) (name ADC1_EXTI15/SPI1_NSS/SYS_JTDI/TIM2_CH1/TIM2_ETR/PA15) (type BiDi))
        (pin (num 39) (name PB3/SPI1_SCK/SYS_JTDO-TRACESWO/TIM2_CH2) (type BiDi))
        (pin (num 40) (name PB4/SPI1_MISO/SYS_NJTRST/TIM3_CH1) (type BiDi))
        (pin (num 41) (name PB5/I2C1_SMBA/SPI1_MOSI/TIM3_CH2) (type BiDi))
        (pin (num 42) (name PB6/I2C1_SCL/USART1_TX) (type BiDi))
        (pin (num 43) (name PB7/I2C1_SDA/USART1_RX) (type BiDi))
        (pin (num 44) (name BOOT0) (type input))
        (pin (num 45) (name PB8/I2C1_SCL) (type BiDi))
        (pin (num 46) (name PB9/I2C1_SDA) (type BiDi))
        (pin (num 47) (name VSS) (type power_in))
        (pin (num 48) (name VDD) (type power_in))))
    (libpart (lib plytka_glowna-cache) (part SW_Push)
      (fields
        (field (name Reference) SW)
        (field (name Value) SW_Push))
      (pins
        (pin (num 1) (name 1) (type passive))
        (pin (num 2) (name 2) (type passive))))
    (libpart (lib plytka_glowna-cache) (part Wzmacniacz)
      (fields
        (field (name Reference) U)
        (field (name Value) Wzmacniacz))
      (pins
        (pin (num 1) (name 3.3V) (type input))
        (pin (num 2) (name 5V) (type input))
        (pin (num 3) (name OUT) (type input))
        (pin (num 4) (name GND) (type input)))))
  (libraries
    (library (logical device)
      (uri "C:\\Program Files\\KiCad\\share\\kicad\\library\\device.lib"))
    (library (logical conn)
      (uri "C:\\Program Files\\KiCad\\share\\kicad\\library\\conn.lib"))
    (library (logical regul)
      (uri "C:\\Program Files\\KiCad\\share\\kicad\\library\\regul.lib"))
    (library (logical plytka_glowna-cache)
      (uri C:\Users\Piotrek\Desktop\Roboty_mobilne_repo\Elektronika\Plytka_glowna\Plytka_glowna\plytka_glowna-cache.lib)))
  (nets
    (net (code 1) (name LED_1)
      (node (ref R1) (pin 2))
      (node (ref U1) (pin 27)))
    (net (code 2) (name "Net-(D2-Pad2)")
      (node (ref D2) (pin 2))
      (node (ref R2) (pin 1)))
    (net (code 3) (name "Net-(D1-Pad2)")
      (node (ref R1) (pin 1))
      (node (ref D1) (pin 2)))
    (net (code 4) (name +5V)
      (node (ref U3) (pin 2))
      (node (ref C9) (pin 1))
      (node (ref U6) (pin 1))
      (node (ref U5) (pin 2)))
    (net (code 5) (name LED_2)
      (node (ref U1) (pin 26))
      (node (ref R2) (pin 2)))
    (net (code 6) (name USB_DP)
      (node (ref U1) (pin 33))
      (node (ref U6) (pin 3)))
    (net (code 7) (name USB_DM)
      (node (ref U6) (pin 4))
      (node (ref U1) (pin 32)))
    (net (code 8) (name "Net-(C11-Pad1)")
      (node (ref C11) (pin 1))
      (node (ref U1) (pin 7))
      (node (ref SW1) (pin 2)))
    (net (code 9) (name +7.5V)
      (node (ref U3) (pin 3))
      (node (ref U4) (pin 3))
      (node (ref J1) (pin 2))
      (node (ref C7) (pin 1))
      (node (ref C8) (pin 1)))
    (net (code 10) (name SWDIO)
      (node (ref P1) (pin 2))
      (node (ref U1) (pin 34)))
    (net (code 11) (name SPI_MOSI)
      (node (ref U7) (pin 3))
      (node (ref U1) (pin 17)))
    (net (code 12) (name SPI_MISO)
      (node (ref U1) (pin 16))
      (node (ref U7) (pin 2)))
    (net (code 13) (name SWCLK)
      (node (ref P1) (pin 3))
      (node (ref U1) (pin 37)))
    (net (code 14) (name HC-05_RX)
      (node (ref U2) (pin 2))
      (node (ref U1) (pin 12)))
    (net (code 15) (name HC-05_TX)
      (node (ref U1) (pin 13))
      (node (ref U2) (pin 3)))
    (net (code 16) (name 2)
      (node (ref P2) (pin 2))
      (node (ref U1) (pin 11)))
    (net (code 17) (name 1)
      (node (ref U1) (pin 10))
      (node (ref P2) (pin 3)))
    (net (code 18) (name +3V3)
      (node (ref U5) (pin 1))
      (node (ref U1) (pin 36))
      (node (ref U1) (pin 48))
      (node (ref C4) (pin 1))
      (node (ref U4) (pin 2))
      (node (ref U2) (pin 1))
      (node (ref U1) (pin 9))
      (node (ref C3) (pin 1))
      (node (ref C2) (pin 1))
      (node (ref U1) (pin 1))
      (node (ref C6) (pin 1))
      (node (ref C1) (pin 1))
      (node (ref C10) (pin 1))
      (node (ref P1) (pin 5))
      (node (ref U1) (pin 24))
      (node (ref P2) (pin 4)))
    (net (code 19) (name GND)
      (node (ref C4) (pin 2))
      (node (ref C3) (pin 2))
      (node (ref U1) (pin 47))
      (node (ref C2) (pin 2))
      (node (ref U2) (pin 4))
      (node (ref C1) (pin 2))
      (node (ref C12) (pin 2))
      (node (ref C13) (pin 2))
      (node (ref U6) (pin 2))
      (node (ref C6) (pin 2))
      (node (ref U5) (pin 4))
      (node (ref U4) (pin 1))
      (node (ref C8) (pin 2))
      (node (ref D3) (pin 1))
      (node (ref U1) (pin 8))
      (node (ref C7) (pin 2))
      (node (ref C9) (pin 2))
      (node (ref C10) (pin 2))
      (node (ref SW1) (pin 1))
      (node (ref U1) (pin 23))
      (node (ref P2) (pin 1))
      (node (ref U1) (pin 44))
      (node (ref U1) (pin 35))
      (node (ref C11) (pin 2))
      (node (ref J1) (pin 1))
      (node (ref D2) (pin 1))
      (node (ref D1) (pin 1))
      (node (ref U3) (pin 1))
      (node (ref P1) (pin 1)))
    (net (code 20) (name "Net-(P1-Pad4)")
      (node (ref P1) (pin 4)))
    (net (code 21) (name PIN_A10)
      (node (ref U1) (pin 31)))
    (net (code 22) (name PIN_A9)
      (node (ref U1) (pin 30)))
    (net (code 23) (name PIN_B7)
      (node (ref U1) (pin 43)))
    (net (code 24) (name PIN_B6)
      (node (ref U1) (pin 42)))
    (net (code 25) (name PIN_B5)
      (node (ref U1) (pin 41)))
    (net (code 26) (name WZM_OUT)
      (node (ref P3) (pin 1))
      (node (ref P3) (pin 2))
      (node (ref U5) (pin 3))
      (node (ref U1) (pin 18)))
    (net (code 27) (name "Net-(U1-Pad14)")
      (node (ref U1) (pin 14)))
    (net (code 28) (name "Net-(C12-Pad1)")
      (node (ref U1) (pin 5))
      (node (ref Y1) (pin 2))
      (node (ref C12) (pin 1)))
    (net (code 29) (name "Net-(C13-Pad1)")
      (node (ref U1) (pin 6))
      (node (ref C13) (pin 1))
      (node (ref Y1) (pin 1)))
    (net (code 30) (name "Net-(D3-Pad2)")
      (node (ref R3) (pin 1))
      (node (ref D3) (pin 2)))
    (net (code 31) (name LED_3)
      (node (ref R3) (pin 2))
      (node (ref U1) (pin 25)))
    (net (code 32) (name ADC)
      (node (ref U1) (pin 19)))
    (net (code 33) (name SPI_SCK)
      (node (ref U7) (pin 1))
      (node (ref U1) (pin 15)))
    (net (code 34) (name "Net-(U6-Pad5)")
      (node (ref U6) (pin 5)))
    (net (code 35) (name "Net-(U1-Pad21)")
      (node (ref U1) (pin 21)))
    (net (code 36) (name "Net-(U1-Pad2)")
      (node (ref U1) (pin 2)))
    (net (code 37) (name "Net-(U1-Pad3)")
      (node (ref U1) (pin 3)))
    (net (code 38) (name "Net-(U1-Pad4)")
      (node (ref U1) (pin 4)))
    (net (code 39) (name "Net-(U1-Pad45)")
      (node (ref U1) (pin 45)))
    (net (code 40) (name "Net-(U1-Pad20)")
      (node (ref U1) (pin 20)))
    (net (code 41) (name "Net-(U1-Pad39)")
      (node (ref U1) (pin 39)))
    (net (code 42) (name "Net-(U1-Pad40)")
      (node (ref U1) (pin 40)))
    (net (code 43) (name "Net-(U1-Pad46)")
      (node (ref U1) (pin 46)))
    (net (code 44) (name "Net-(U1-Pad22)")
      (node (ref U1) (pin 22)))
    (net (code 45) (name "Net-(U1-Pad28)")
      (node (ref U1) (pin 28)))
    (net (code 46) (name "Net-(U1-Pad29)")
      (node (ref U1) (pin 29)))
    (net (code 47) (name "Net-(U1-Pad38)")
      (node (ref U1) (pin 38)))))