EESchema Schematic File Version 2
LIBS:plytka_glowna-rescue
LIBS:power
LIBS:device
LIBS:transistors
LIBS:conn
LIBS:linear
LIBS:regul
LIBS:74xx
LIBS:cmos4000
LIBS:adc-dac
LIBS:memory
LIBS:xilinx
LIBS:microcontrollers
LIBS:dsp
LIBS:microchip
LIBS:analog_switches
LIBS:motorola
LIBS:texas
LIBS:intel
LIBS:audio
LIBS:interface
LIBS:digital-audio
LIBS:philips
LIBS:display
LIBS:cypress
LIBS:siliconi
LIBS:opto
LIBS:atmel
LIBS:contrib
LIBS:valves
LIBS:ac-dc
LIBS:Altera
LIBS:analog_devices
LIBS:brooktre
LIBS:dc-dc
LIBS:Diode
LIBS:Display
LIBS:elec-unifil
LIBS:ESD_Protection
LIBS:ftdi
LIBS:gennum
LIBS:Graphic
LIBS:hc11
LIBS:ir
LIBS:Lattice
LIBS:maxim
LIBS:motor_drivers
LIBS:nordicsemi
LIBS:onsemi
LIBS:Oscillators
LIBS:Power_Management
LIBS:powerint
LIBS:pspice
LIBS:references
LIBS:rfcom
LIBS:sensors
LIBS:silabs
LIBS:supertex
LIBS:video
LIBS:Xicor
LIBS:Zilog
LIBS:plytka_glowna-cache
EELAYER 25 0
EELAYER END
$Descr A3 16535 11693
encoding utf-8
Sheet 1 1
Title ""
Date ""
Rev ""
Comp ""
Comment1 ""
Comment2 ""
Comment3 ""
Comment4 ""
$EndDescr
$Comp
L +3.3V #PWR01
U 1 1 59F87273
P 4300 950
F 0 "#PWR01" H 4300 800 50  0001 C CNN
F 1 "+3.3V" H 4300 1090 50  0000 C CNN
F 2 "" H 4300 950 60  0000 C CNN
F 3 "" H 4300 950 60  0000 C CNN
	1    4300 950 
	1    0    0    -1  
$EndComp
$Comp
L C C1
U 1 1 59F87274
P 3650 1350
F 0 "C1" H 3675 1450 50  0000 L CNN
F 1 "100nF" H 3675 1250 50  0000 L CNN
F 2 "111:0805" H 3688 1200 30  0001 C CNN
F 3 "" H 3650 1350 60  0000 C CNN
	1    3650 1350
	1    0    0    -1  
$EndComp
$Comp
L CP C6
U 1 1 59F87276
P 4650 1350
F 0 "C6" H 4675 1450 50  0000 L CNN
F 1 "10uF" H 4675 1250 50  0000 L CNN
F 2 "111:Size_A" H 4688 1200 30  0001 C CNN
F 3 "" H 4650 1350 60  0000 C CNN
	1    4650 1350
	1    0    0    -1  
$EndComp
$Comp
L C C2
U 1 1 59F87277
P 3900 1350
F 0 "C2" H 3925 1450 50  0000 L CNN
F 1 "100nF" H 3925 1250 50  0000 L CNN
F 2 "111:0805" H 3938 1200 30  0001 C CNN
F 3 "" H 3900 1350 60  0000 C CNN
	1    3900 1350
	1    0    0    -1  
$EndComp
$Comp
L C C4
U 1 1 59F87278
P 4400 1350
F 0 "C4" H 4425 1450 50  0000 L CNN
F 1 "100nF" H 4425 1250 50  0000 L CNN
F 2 "111:0805" H 4438 1200 30  0001 C CNN
F 3 "" H 4400 1350 60  0000 C CNN
	1    4400 1350
	1    0    0    -1  
$EndComp
$Comp
L C C3
U 1 1 59F87279
P 4150 1350
F 0 "C3" H 4175 1450 50  0000 L CNN
F 1 "100nF" H 4175 1250 50  0000 L CNN
F 2 "111:0805" H 4188 1200 30  0001 C CNN
F 3 "" H 4150 1350 60  0000 C CNN
	1    4150 1350
	1    0    0    -1  
$EndComp
$Comp
L Bluetooth_HC-05 U2
U 1 1 59F8E4E4
P 7650 6300
F 0 "U2" H 7950 6750 60  0000 C CNN
F 1 "Bluetooth_HC-05" H 7650 5850 60  0000 C CNN
F 2 "111:GoldPin_1x4" H 7650 6300 60  0001 C CNN
F 3 "" H 7650 6300 60  0000 C CNN
	1    7650 6300
	1    0    0    -1  
$EndComp
$Comp
L +3.3V #PWR02
U 1 1 59F9006D
P 8300 5800
F 0 "#PWR02" H 8300 5650 50  0001 C CNN
F 1 "+3.3V" H 8300 5940 50  0000 C CNN
F 2 "" H 8300 5800 60  0000 C CNN
F 3 "" H 8300 5800 60  0000 C CNN
	1    8300 5800
	1    0    0    -1  
$EndComp
$Comp
L GND #PWR03
U 1 1 59F90073
P 8300 6750
F 0 "#PWR03" H 8300 6500 50  0001 C CNN
F 1 "GND" H 8300 6600 50  0000 C CNN
F 2 "" H 8300 6750 60  0000 C CNN
F 3 "" H 8300 6750 60  0000 C CNN
	1    8300 6750
	1    0    0    -1  
$EndComp
Text GLabel 8300 6200 2    47   Input ~ 0
HC-05_RX
Text GLabel 8300 6400 2    47   Input ~ 0
HC-05_TX
Text GLabel 6200 4300 2    47   Input ~ 0
HC-05_RX
Text GLabel 6200 4400 2    47   Input ~ 0
HC-05_TX
$Comp
L GND #PWR04
U 1 1 59FFAA6D
P 4300 6200
F 0 "#PWR04" H 4300 5950 50  0001 C CNN
F 1 "GND" H 4300 6050 50  0000 C CNN
F 2 "" H 4300 6200 60  0000 C CNN
F 3 "" H 4300 6200 60  0000 C CNN
	1    4300 6200
	1    0    0    -1  
$EndComp
$Comp
L +3.3V #PWR05
U 1 1 59FFAA76
P 4300 2200
F 0 "#PWR05" H 4300 2050 50  0001 C CNN
F 1 "+3.3V" H 4300 2340 50  0000 C CNN
F 2 "" H 4300 2200 60  0000 C CNN
F 3 "" H 4300 2200 60  0000 C CNN
	1    4300 2200
	1    0    0    -1  
$EndComp
$Comp
L +3.3V #PWR06
U 1 1 59FFAA78
P 9800 2650
F 0 "#PWR06" H 9800 2500 50  0001 C CNN
F 1 "+3.3V" H 9800 2790 50  0000 C CNN
F 2 "" H 9800 2650 60  0000 C CNN
F 3 "" H 9800 2650 60  0000 C CNN
	1    9800 2650
	1    0    0    -1  
$EndComp
$Comp
L GND #PWR07
U 1 1 59FFAA79
P 9800 3300
F 0 "#PWR07" H 9800 3050 50  0001 C CNN
F 1 "GND" H 9800 3150 50  0000 C CNN
F 2 "" H 9800 3300 60  0000 C CNN
F 3 "" H 9800 3300 60  0000 C CNN
	1    9800 3300
	1    0    0    -1  
$EndComp
Text GLabel 9800 3050 2    47   Input ~ 0
SWDIO
Text GLabel 9800 2950 2    47   Input ~ 0
SWCLK
Text GLabel 6200 5400 2    47   Input ~ 0
SWDIO
Text GLabel 6200 5500 2    47   Input ~ 0
SWCLK
Text GLabel 6200 5300 2    47   Input ~ 0
USB_DP
Text GLabel 6200 5200 2    47   Input ~ 0
USB_DM
$Comp
L GND #PWR08
U 1 1 59FFAA7B
P 10350 4850
F 0 "#PWR08" H 10350 4600 50  0001 C CNN
F 1 "GND" H 10350 4700 50  0000 C CNN
F 2 "" H 10350 4850 60  0000 C CNN
F 3 "" H 10350 4850 60  0000 C CNN
	1    10350 4850
	1    0    0    -1  
$EndComp
$Comp
L MicroUSB-B U6
U 1 1 59FFAA7C
P 9850 4600
F 0 "U6" H 10050 4900 60  0000 C CNN
F 1 "MicroUSB-B" H 9850 4300 60  0000 C CNN
F 2 "111:GoldPin_1x5" H 10300 5050 60  0001 C CNN
F 3 "" H 10300 5050 60  0000 C CNN
	1    9850 4600
	1    0    0    -1  
$EndComp
$Comp
L +5V #PWR09
U 1 1 59FFAA7D
P 10350 4350
F 0 "#PWR09" H 10350 4200 50  0001 C CNN
F 1 "+5V" H 10350 4490 50  0000 C CNN
F 2 "" H 10350 4350 60  0000 C CNN
F 3 "" H 10350 4350 60  0000 C CNN
	1    10350 4350
	1    0    0    -1  
$EndComp
Text GLabel 9350 4450 0    47   Input ~ 0
USB_DP
Text GLabel 9350 4600 0    47   Input ~ 0
USB_DM
$Comp
L AP1117 U4
U 1 1 59FFAA81
P 7900 2800
F 0 "U4" H 8000 2550 50  0000 C CNN
F 1 "AP1117" H 7900 3050 50  0000 C CNN
F 2 "111:SOT-223" H 7900 2800 60  0001 C CNN
F 3 "" H 7900 2800 60  0000 C CNN
	1    7900 2800
	1    0    0    -1  
$EndComp
$Comp
L +3.3V #PWR010
U 1 1 59FFAA83
P 8400 2700
F 0 "#PWR010" H 8400 2550 50  0001 C CNN
F 1 "+3.3V" H 8400 2840 50  0000 C CNN
F 2 "" H 8400 2700 60  0000 C CNN
F 3 "" H 8400 2700 60  0000 C CNN
	1    8400 2700
	1    0    0    -1  
$EndComp
$Comp
L AP1117 U3
U 1 1 59FFAA86
P 7900 1500
F 0 "U3" H 8000 1250 50  0000 C CNN
F 1 "AP1117" H 7900 1750 50  0000 C CNN
F 2 "111:SOT-223" H 7900 1500 60  0001 C CNN
F 3 "" H 7900 1500 60  0000 C CNN
	1    7900 1500
	1    0    0    -1  
$EndComp
$Comp
L GND #PWR011
U 1 1 59FFAA87
P 7900 2000
F 0 "#PWR011" H 7900 1750 50  0001 C CNN
F 1 "GND" H 7900 1850 50  0000 C CNN
F 2 "" H 7900 2000 60  0000 C CNN
F 3 "" H 7900 2000 60  0000 C CNN
	1    7900 2000
	1    0    0    -1  
$EndComp
$Comp
L +5V #PWR012
U 1 1 59FFAA8A
P 8400 1400
F 0 "#PWR012" H 8400 1250 50  0001 C CNN
F 1 "+5V" H 8400 1540 50  0000 C CNN
F 2 "" H 8400 1400 60  0000 C CNN
F 3 "" H 8400 1400 60  0000 C CNN
	1    8400 1400
	1    0    0    -1  
$EndComp
$Comp
L LED-RESCUE-schematpcb D1
U 1 1 59FFAA8B
P 8350 4100
F 0 "D1" H 8350 4200 50  0000 C CNN
F 1 "LED" H 8350 4000 50  0000 C CNN
F 2 "LEDs:LED_0805" H 8350 4100 60  0001 C CNN
F 3 "" H 8350 4100 60  0000 C CNN
	1    8350 4100
	-1   0    0    1   
$EndComp
$Comp
L GND #PWR013
U 1 1 59FFAA8C
P 8650 4200
F 0 "#PWR013" H 8650 3950 50  0001 C CNN
F 1 "GND" H 8650 4050 50  0000 C CNN
F 2 "" H 8650 4200 60  0000 C CNN
F 3 "" H 8650 4200 60  0000 C CNN
	1    8650 4200
	1    0    0    -1  
$EndComp
$Comp
L LED-RESCUE-schematpcb D2
U 1 1 59FFAA8D
P 8350 4450
F 0 "D2" H 8350 4550 50  0000 C CNN
F 1 "LED" H 8350 4350 50  0000 C CNN
F 2 "LEDs:LED_0805" H 8350 4450 60  0001 C CNN
F 3 "" H 8350 4450 60  0000 C CNN
	1    8350 4450
	-1   0    0    1   
$EndComp
$Comp
L GND #PWR014
U 1 1 59FFAA8E
P 8650 4550
F 0 "#PWR014" H 8650 4300 50  0001 C CNN
F 1 "GND" H 8650 4400 50  0000 C CNN
F 2 "" H 8650 4550 60  0000 C CNN
F 3 "" H 8650 4550 60  0000 C CNN
	1    8650 4550
	1    0    0    -1  
$EndComp
$Comp
L LED-RESCUE-schematpcb D3
U 1 1 59FFAA8F
P 8350 4800
F 0 "D3" H 8350 4900 50  0000 C CNN
F 1 "LED" H 8350 4700 50  0000 C CNN
F 2 "LEDs:LED_0805" H 8350 4800 60  0001 C CNN
F 3 "" H 8350 4800 60  0000 C CNN
	1    8350 4800
	-1   0    0    1   
$EndComp
$Comp
L GND #PWR015
U 1 1 59FFAA90
P 8650 4900
F 0 "#PWR015" H 8650 4650 50  0001 C CNN
F 1 "GND" H 8650 4750 50  0000 C CNN
F 2 "" H 8650 4900 60  0000 C CNN
F 3 "" H 8650 4900 60  0000 C CNN
	1    8650 4900
	1    0    0    -1  
$EndComp
Text GLabel 7650 4100 0    60   Input ~ 0
LED_1
Text GLabel 7650 4450 0    60   Input ~ 0
LED_2
Text GLabel 7650 4800 0    60   Input ~ 0
LED_3
$Comp
L R R1
U 1 1 59FFAA91
P 7900 4100
F 0 "R1" V 7980 4100 50  0000 C CNN
F 1 "220R" V 7900 4100 50  0000 C CNN
F 2 "111:0805" V 7830 4100 30  0001 C CNN
F 3 "" H 7900 4100 30  0000 C CNN
	1    7900 4100
	0    1    1    0   
$EndComp
$Comp
L R R2
U 1 1 59FFAA92
P 7900 4450
F 0 "R2" V 7980 4450 50  0000 C CNN
F 1 "220R" V 7900 4450 50  0000 C CNN
F 2 "111:0805" V 7830 4450 30  0001 C CNN
F 3 "" H 7900 4450 30  0000 C CNN
	1    7900 4450
	0    1    1    0   
$EndComp
$Comp
L R R3
U 1 1 59FFAA93
P 7900 4800
F 0 "R3" V 7980 4800 50  0000 C CNN
F 1 "220R" V 7900 4800 50  0000 C CNN
F 2 "111:0805" V 7830 4800 30  0001 C CNN
F 3 "" H 7900 4800 30  0000 C CNN
	1    7900 4800
	0    1    1    0   
$EndComp
Text GLabel 2400 5500 0    60   Input ~ 0
LED_1
Text GLabel 2400 5400 0    60   Input ~ 0
LED_2
Text GLabel 2400 5300 0    60   Input ~ 0
LED_3
$Comp
L CONN_01x02 J1
U 1 1 59FFAA97
P 9850 1650
F 0 "J1" H 9800 1750 50  0000 L CNN
F 1 "CONN_01x02" H 9500 1450 50  0000 L CNN
F 2 "111:GoldPin_1x2" H 9850 1650 50  0001 C CNN
F 3 "" H 9850 1650 50  0001 C CNN
	1    9850 1650
	-1   0    0    1   
$EndComp
$Comp
L GND #PWR016
U 1 1 59FFAA98
P 9650 1850
F 0 "#PWR016" H 9650 1600 50  0001 C CNN
F 1 "GND" H 9650 1700 50  0000 C CNN
F 2 "" H 9650 1850 60  0000 C CNN
F 3 "" H 9650 1850 60  0000 C CNN
	1    9650 1850
	1    0    0    -1  
$EndComp
$Comp
L +7.4V #PWR017
U 1 1 59FFAA99
P 9650 1350
F 0 "#PWR017" H 9650 1200 50  0001 C CNN
F 1 "+7.4V" H 9650 1490 50  0000 C CNN
F 2 "" H 9650 1350 50  0001 C CNN
F 3 "" H 9650 1350 50  0001 C CNN
	1    9650 1350
	1    0    0    -1  
$EndComp
$Comp
L PWR_FLAG #FLG018
U 1 1 59FFAA9A
P 9550 1450
F 0 "#FLG018" H 9550 1525 50  0001 C CNN
F 1 "PWR_FLAG" H 9550 1600 50  0000 C CNN
F 2 "" H 9550 1450 50  0001 C CNN
F 3 "" H 9550 1450 50  0001 C CNN
	1    9550 1450
	0    -1   -1   0   
$EndComp
$Comp
L PWR_FLAG #FLG019
U 1 1 59FFAA9B
P 9550 1750
F 0 "#FLG019" H 9550 1825 50  0001 C CNN
F 1 "PWR_FLAG" H 9550 1900 50  0000 C CNN
F 2 "" H 9550 1750 50  0001 C CNN
F 3 "" H 9550 1750 50  0001 C CNN
	1    9550 1750
	0    -1   -1   0   
$EndComp
$Comp
L +7.4V #PWR020
U 1 1 59FFAA9C
P 7400 1400
F 0 "#PWR020" H 7400 1250 50  0001 C CNN
F 1 "+7.4V" H 7400 1540 50  0000 C CNN
F 2 "" H 7400 1400 50  0001 C CNN
F 3 "" H 7400 1400 50  0001 C CNN
	1    7400 1400
	1    0    0    -1  
$EndComp
NoConn ~ 9450 4750
Text Notes 1600 1050 0    138  ~ 28
Mikrokontroler
Text Notes 6950 1050 0    139  ~ 28
Stabilizatory
Text Notes 9100 1050 0    139  ~ 28
Zasilanie
Text Notes 9050 2400 0    139  ~ 28
Programator
Text Notes 8950 3900 0    139  ~ 28
Micro USB-B
Text Notes 6950 3900 0    139  ~ 28
LEDs
$Comp
L GND #PWR021
U 1 1 59FFAA9E
P 2300 3100
F 0 "#PWR021" H 2300 2850 50  0001 C CNN
F 1 "GND" H 2300 2950 50  0000 C CNN
F 2 "" H 2300 3100 60  0000 C CNN
F 3 "" H 2300 3100 60  0000 C CNN
	1    2300 3100
	1    0    0    -1  
$EndComp
$Comp
L C C11
U 1 1 59FFAA9F
P 1400 3050
F 0 "C11" H 1425 3150 50  0000 L CNN
F 1 "100nF" H 1425 2950 50  0000 L CNN
F 2 "111:0805" H 1438 2900 30  0001 C CNN
F 3 "" H 1400 3050 60  0000 C CNN
	1    1400 3050
	1    0    0    -1  
$EndComp
$Comp
L GND #PWR022
U 1 1 59FFAAA0
P 1400 3300
F 0 "#PWR022" H 1400 3050 50  0001 C CNN
F 1 "GND" H 1400 3150 50  0000 C CNN
F 2 "" H 1400 3300 60  0000 C CNN
F 3 "" H 1400 3300 60  0000 C CNN
	1    1400 3300
	1    0    0    -1  
$EndComp
$Comp
L SW_Push SW1
U 1 1 59FFAAA1
P 1150 3100
F 0 "SW1" H 1200 3200 50  0000 L CNN
F 1 "SW_Push" H 1150 3040 50  0000 C CNN
F 2 "111:Tact_switch_4x4mm" H 1150 3300 50  0001 C CNN
F 3 "" H 1150 3300 50  0001 C CNN
	1    1150 3100
	0    -1   -1   0   
$EndComp
$Comp
L GND #PWR023
U 1 1 59FFAAA2
P 1150 3400
F 0 "#PWR023" H 1150 3150 50  0001 C CNN
F 1 "GND" H 1150 3250 50  0000 C CNN
F 2 "" H 1150 3400 60  0000 C CNN
F 3 "" H 1150 3400 60  0000 C CNN
	1    1150 3400
	1    0    0    -1  
$EndComp
$Comp
L GND #PWR024
U 1 1 59FFAA82
P 7900 3300
F 0 "#PWR024" H 7900 3050 50  0001 C CNN
F 1 "GND" H 7900 3150 50  0000 C CNN
F 2 "" H 7900 3300 60  0000 C CNN
F 3 "" H 7900 3300 60  0000 C CNN
	1    7900 3300
	1    0    0    -1  
$EndComp
$Comp
L GND #PWR025
U 1 1 59F8727A
P 4300 1700
F 0 "#PWR025" H 4300 1450 50  0001 C CNN
F 1 "GND" H 4300 1550 50  0000 C CNN
F 2 "" H 4300 1700 60  0000 C CNN
F 3 "" H 4300 1700 60  0000 C CNN
	1    4300 1700
	1    0    0    -1  
$EndComp
Text Notes 7200 5600 0    139  ~ 28
Bluetooth HC-05
$Comp
L STM32F102C6Tx U1
U 1 1 5A00A25C
P 4300 4200
F 0 "U1" H 2600 5925 50  0000 L BNN
F 1 "STM32F102C6Tx" H 6000 5925 50  0000 R BNN
F 2 "Housings_QFP:LQFP-48_7x7mm_Pitch0.5mm" H 6000 5875 50  0001 R TNN
F 3 "" H 4300 4200 50  0001 C CNN
	1    4300 4200
	1    0    0    -1  
$EndComp
NoConn ~ 6100 5600
NoConn ~ 6100 4900
NoConn ~ 2500 5600
NoConn ~ 2500 5200
NoConn ~ 2500 5100
NoConn ~ 2500 5000
NoConn ~ 2500 4500
NoConn ~ 2500 4400
NoConn ~ 2500 4300
NoConn ~ 2500 4900
NoConn ~ 2500 3900
NoConn ~ 2500 3800
NoConn ~ 2500 3700
$Comp
L Wzmacniacz U5
U 1 1 5A00C3EE
P 9700 6300
F 0 "U5" H 10000 5850 60  0000 C CNN
F 1 "Wzmacniacz" H 9800 6750 60  0000 C CNN
F 2 "111:GoldPin_1x4" H 9700 6300 60  0001 C CNN
F 3 "" H 9700 6300 60  0001 C CNN
	1    9700 6300
	1    0    0    -1  
$EndComp
$Comp
L GND #PWR026
U 1 1 5A00C669
P 10350 6700
F 0 "#PWR026" H 10350 6450 50  0001 C CNN
F 1 "GND" H 10350 6550 50  0000 C CNN
F 2 "" H 10350 6700 60  0000 C CNN
F 3 "" H 10350 6700 60  0000 C CNN
	1    10350 6700
	1    0    0    -1  
$EndComp
$Comp
L +5V #PWR027
U 1 1 5A00C671
P 10500 6100
F 0 "#PWR027" H 10500 5950 50  0001 C CNN
F 1 "+5V" H 10500 6240 50  0000 C CNN
F 2 "" H 10500 6100 60  0000 C CNN
F 3 "" H 10500 6100 60  0000 C CNN
	1    10500 6100
	1    0    0    -1  
$EndComp
$Comp
L +3.3V #PWR028
U 1 1 5A00CA3D
P 10350 5800
F 0 "#PWR028" H 10350 5650 50  0001 C CNN
F 1 "+3.3V" H 10350 5940 50  0000 C CNN
F 2 "" H 10350 5800 60  0000 C CNN
F 3 "" H 10350 5800 60  0000 C CNN
	1    10350 5800
	1    0    0    -1  
$EndComp
Text GLabel 10350 6400 2    60   Input ~ 0
WZM_OUT
Text GLabel 1950 4100 0    47   Input ~ 0
WZM_OUT
Text Notes 9400 5550 0    139  ~ 28
Wzmacniacz
$Comp
L +7.4V #PWR029
U 1 1 5A09C916
P 7400 2700
F 0 "#PWR029" H 7400 2550 50  0001 C CNN
F 1 "+7.4V" H 7400 2840 50  0000 C CNN
F 2 "" H 7400 2700 50  0001 C CNN
F 3 "" H 7400 2700 50  0001 C CNN
	1    7400 2700
	1    0    0    -1  
$EndComp
$Comp
L +3.3V #PWR030
U 1 1 5A09D6F1
P 2400 3150
F 0 "#PWR030" H 2400 3000 50  0001 C CNN
F 1 "+3.3V" H 2400 3290 50  0000 C CNN
F 2 "" H 2400 3150 60  0000 C CNN
F 3 "" H 2400 3150 60  0000 C CNN
	1    2400 3150
	1    0    0    -1  
$EndComp
$Comp
L Crystal Y1
U 1 1 5A09D6F5
P 2100 3650
F 0 "Y1" H 2100 3800 50  0000 C CNN
F 1 "Crystal" H 2100 3500 50  0000 C CNN
F 2 "Crystals:Crystal_SMD_HC49-SD" H 2100 3650 50  0001 C CNN
F 3 "" H 2100 3650 50  0001 C CNN
	1    2100 3650
	0    -1   -1   0   
$EndComp
$Comp
L GND #PWR031
U 1 1 5A09D6F6
P 1700 3700
F 0 "#PWR031" H 1700 3450 50  0001 C CNN
F 1 "GND" H 1700 3550 50  0000 C CNN
F 2 "" H 1700 3700 60  0000 C CNN
F 3 "" H 1700 3700 60  0000 C CNN
	1    1700 3700
	1    0    0    -1  
$EndComp
$Comp
L GND #PWR032
U 1 1 5A09D6F7
P 2100 4250
F 0 "#PWR032" H 2100 4000 50  0001 C CNN
F 1 "GND" H 2100 4100 50  0000 C CNN
F 2 "" H 2100 4250 60  0000 C CNN
F 3 "" H 2100 4250 60  0000 C CNN
	1    2100 4250
	1    0    0    -1  
$EndComp
$Comp
L C C12
U 1 1 5A09D6F8
P 1950 3400
F 0 "C12" H 1975 3500 50  0000 L CNN
F 1 "22pF" H 1975 3300 50  0000 L CNN
F 2 "111:0805" H 1988 3250 50  0001 C CNN
F 3 "" H 1950 3400 50  0001 C CNN
	1    1950 3400
	0    1    1    0   
$EndComp
$Comp
L C C13
U 1 1 5A09D6F9
P 2100 4050
F 0 "C13" H 2125 4150 50  0000 L CNN
F 1 "22pF" H 2125 3950 50  0000 L CNN
F 2 "111:0805" H 2138 3900 50  0001 C CNN
F 3 "" H 2100 4050 50  0001 C CNN
	1    2100 4050
	1    0    0    -1  
$EndComp
Text GLabel 6200 4600 2    47   Input ~ 0
SPI_SCK
Text GLabel 6200 4700 2    47   Input ~ 0
SPI_MISO
Text GLabel 6200 4800 2    47   Input ~ 0
SPI_MOSI
$Comp
L SPI U7
U 1 1 5A09D709
P 11000 1800
F 0 "U7" H 11200 2350 60  0000 C CNN
F 1 "SPI" H 11000 1250 60  0000 C CNN
F 2 "111:GoldPin_1x3" H 11000 1800 139 0001 C CNN
F 3 "" H 11000 1800 139 0001 C CNN
	1    11000 1800
	1    0    0    -1  
$EndComp
Text GLabel 11550 1400 2    60   Input ~ 0
SPI_SCK
Text GLabel 11550 1800 2    60   Input ~ 0
SPI_MISO
Text GLabel 11550 2200 2    60   Input ~ 0
SPI_MOSI
Text Notes 10750 1050 0    139  ~ 28
SPI
Wire Wire Line
	3650 1200 3650 1100
Wire Wire Line
	3900 1200 3900 1100
Connection ~ 3900 1100
Wire Wire Line
	4150 1100 4150 1200
Connection ~ 4150 1100
Wire Wire Line
	4400 1100 4400 1200
Connection ~ 4400 1100
Wire Wire Line
	4300 950  4300 950 
Wire Wire Line
	4300 1100 4300 950 
Connection ~ 4300 1100
Wire Wire Line
	3650 1500 3650 1600
Wire Wire Line
	3900 1600 3900 1500
Connection ~ 3900 1600
Wire Wire Line
	4150 1600 4150 1500
Connection ~ 4150 1600
Wire Wire Line
	4400 1600 4400 1500
Connection ~ 4400 1600
Wire Wire Line
	4300 1600 4300 1700
Connection ~ 4300 1600
Wire Wire Line
	8200 6600 8300 6600
Wire Wire Line
	8300 6600 8300 6750
Wire Wire Line
	8200 6000 8300 6000
Wire Wire Line
	8300 6000 8300 5800
Wire Wire Line
	8200 6400 8300 6400
Wire Wire Line
	8200 6200 8300 6200
Wire Wire Line
	6100 4400 6200 4400
Wire Wire Line
	6100 4300 6200 4300
Wire Wire Line
	9700 3150 9800 3150
Wire Wire Line
	9800 3150 9800 3300
Wire Wire Line
	9700 3050 9800 3050
Wire Wire Line
	9700 2950 9800 2950
Wire Wire Line
	4400 6100 4400 6000
Wire Wire Line
	4300 6000 4300 6200
Connection ~ 4300 6100
Wire Wire Line
	4200 6000 4200 6100
Connection ~ 4200 6100
Wire Wire Line
	4100 6000 4100 6100
Wire Wire Line
	4300 2200 4300 2400
Wire Wire Line
	4400 2300 4400 2400
Wire Wire Line
	4100 2400 4100 2300
Wire Wire Line
	4200 2400 4200 2300
Connection ~ 4200 2300
Connection ~ 4300 2300
Wire Wire Line
	6200 5500 6100 5500
Wire Wire Line
	6100 5400 6200 5400
Wire Wire Line
	6200 5300 6100 5300
Wire Wire Line
	6100 5200 6200 5200
Wire Wire Line
	10250 4750 10350 4750
Wire Wire Line
	10350 4750 10350 4850
Wire Wire Line
	10250 4450 10350 4450
Wire Wire Line
	10350 4450 10350 4350
Wire Wire Line
	9350 4450 9450 4450
Wire Wire Line
	9350 4600 9450 4600
Wire Wire Line
	7900 3100 7900 3300
Wire Wire Line
	8200 2800 8400 2800
Wire Wire Line
	8400 2700 8400 2900
Wire Wire Line
	7400 3200 8400 3200
Connection ~ 7900 3200
Connection ~ 8400 2800
Wire Wire Line
	7900 1800 7900 2000
Wire Wire Line
	8200 1500 8400 1500
Wire Wire Line
	8400 1400 8400 1600
Wire Wire Line
	7400 1900 8400 1900
Connection ~ 7900 1900
Connection ~ 8400 1500
Wire Wire Line
	8550 4100 8650 4100
Wire Wire Line
	8650 4100 8650 4200
Wire Wire Line
	8050 4100 8150 4100
Wire Wire Line
	8150 4450 8050 4450
Wire Wire Line
	7650 4100 7750 4100
Wire Wire Line
	7650 4450 7750 4450
Wire Wire Line
	2500 5500 2400 5500
Wire Wire Line
	2400 5400 2500 5400
Wire Wire Line
	8550 4450 8650 4450
Wire Wire Line
	8650 4450 8650 4550
Wire Wire Line
	9650 1650 9650 1850
Wire Wire Line
	9650 1650 9750 1650
Wire Wire Line
	9650 1550 9750 1550
Wire Wire Line
	9650 1350 9650 1550
Wire Wire Line
	9650 1450 9550 1450
Connection ~ 9650 1450
Wire Wire Line
	9650 1750 9550 1750
Connection ~ 9650 1750
Wire Wire Line
	7400 2700 7400 2900
Wire Wire Line
	7400 2800 7600 2800
Connection ~ 7400 2800
Wire Wire Line
	7400 1500 7600 1500
Connection ~ 7400 1500
Wire Notes Line
	9250 7050 9250 5150
Wire Notes Line
	850  7050 11000 7050
Wire Notes Line
	850  7050 850  650 
Wire Notes Line
	8900 650  8900 5150
Wire Notes Line
	10500 650  10500 5150
Wire Notes Line
	10500 2150 8900 2150
Wire Wire Line
	2300 3100 2300 3000
Wire Wire Line
	2300 3000 2500 3000
Wire Wire Line
	1150 2900 1150 2800
Wire Wire Line
	1150 2800 2500 2800
Wire Wire Line
	1400 2900 1400 2800
Connection ~ 1400 2800
Wire Wire Line
	1150 3400 1150 3300
Wire Wire Line
	1400 3300 1400 3200
Wire Wire Line
	7650 4800 7750 4800
Wire Wire Line
	8050 4800 8150 4800
Wire Wire Line
	8550 4800 8650 4800
Wire Wire Line
	8650 4800 8650 4900
Wire Wire Line
	2500 5300 2400 5300
Wire Notes Line
	6900 650  6900 7050
Wire Notes Line
	850  650  12200 650 
Wire Wire Line
	7400 1400 7400 1600
Wire Wire Line
	4100 6100 4400 6100
Wire Wire Line
	4100 2300 4400 2300
Wire Wire Line
	10250 6600 10350 6600
Wire Wire Line
	10350 6600 10350 6700
Wire Wire Line
	10250 6200 10500 6200
Wire Wire Line
	10500 6200 10500 6100
Wire Wire Line
	10250 6000 10350 6000
Wire Wire Line
	10350 6000 10350 5800
Wire Wire Line
	10250 6400 10350 6400
Wire Notes Line
	11000 7050 11000 5150
Wire Wire Line
	2500 3200 2400 3200
Wire Wire Line
	2400 3200 2400 3150
Wire Wire Line
	2100 4250 2100 4200
Wire Wire Line
	2100 3800 2100 3900
Connection ~ 2100 3850
Wire Wire Line
	2100 3400 2500 3400
Connection ~ 2100 3400
Wire Wire Line
	1700 3400 1700 3700
Wire Wire Line
	6100 4800 6200 4800
Wire Wire Line
	6100 4700 6200 4700
Wire Wire Line
	6100 4600 6200 4600
Wire Wire Line
	11550 1400 11450 1400
Wire Wire Line
	11450 1800 11550 1800
Wire Wire Line
	11550 2200 11450 2200
Wire Wire Line
	2500 3500 2400 3500
Wire Wire Line
	2400 3500 2400 3850
Wire Wire Line
	2400 3850 2100 3850
Wire Wire Line
	1700 3400 1800 3400
Wire Wire Line
	2100 3500 2100 3400
Wire Wire Line
	2500 4200 2400 4200
Wire Wire Line
	2400 4200 2400 4500
Wire Wire Line
	2400 4500 2300 4500
Text GLabel 2300 4500 0    47   Input ~ 0
ADC
Wire Notes Line
	12200 650  12200 5150
Wire Notes Line
	12200 2550 10500 2550
$Comp
L CP C7
U 1 1 5A0A35AB
P 7400 1750
F 0 "C7" H 7425 1850 50  0000 L CNN
F 1 "4.7uF" H 7425 1650 50  0000 L CNN
F 2 "111:Size_A" H 7438 1600 30  0001 C CNN
F 3 "" H 7400 1750 60  0000 C CNN
	1    7400 1750
	1    0    0    -1  
$EndComp
$Comp
L CP C9
U 1 1 5A0A3A44
P 8400 1750
F 0 "C9" H 8425 1850 50  0000 L CNN
F 1 "4.7uF" H 8425 1650 50  0000 L CNN
F 2 "111:Size_A" H 8438 1600 30  0001 C CNN
F 3 "" H 8400 1750 60  0000 C CNN
	1    8400 1750
	1    0    0    -1  
$EndComp
$Comp
L CP C8
U 1 1 5A0A3C84
P 7400 3050
F 0 "C8" H 7425 3150 50  0000 L CNN
F 1 "4.7uF" H 7425 2950 50  0000 L CNN
F 2 "111:Size_A" H 7438 2900 30  0001 C CNN
F 3 "" H 7400 3050 60  0000 C CNN
	1    7400 3050
	1    0    0    -1  
$EndComp
$Comp
L CP C10
U 1 1 5A0A3D1C
P 8400 3050
F 0 "C10" H 8425 3150 50  0000 L CNN
F 1 "4.7uF" H 8425 2950 50  0000 L CNN
F 2 "111:Size_A" H 8438 2900 30  0001 C CNN
F 3 "" H 8400 3050 60  0000 C CNN
	1    8400 3050
	1    0    0    -1  
$EndComp
Text GLabel 6200 5100 2    47   Input ~ 0
PIN_A10
Text GLabel 6200 5000 2    47   Input ~ 0
PIN_A9
Text GLabel 2400 4600 0    47   Input ~ 0
PIN_B5
Text GLabel 2400 4700 0    47   Input ~ 0
PIN_B6
Text GLabel 2400 4800 0    47   Input ~ 0
PIN_B7
Wire Wire Line
	2400 4600 2500 4600
Wire Wire Line
	2400 4700 2500 4700
Wire Wire Line
	2400 4800 2500 4800
Wire Wire Line
	6100 5000 6200 5000
Wire Wire Line
	6100 5100 6200 5100
Text Notes 10750 2800 0    139  ~ 28
Wolne piny
Wire Wire Line
	4650 1600 4650 1500
Connection ~ 4650 1600
Wire Wire Line
	4650 1100 4650 1200
Connection ~ 4650 1100
Wire Wire Line
	3650 1100 4650 1100
Wire Wire Line
	3650 1600 4650 1600
Wire Notes Line
	6900 3650 10500 3600
Wire Notes Line
	12200 5150 6900 5150
Wire Wire Line
	11350 3250 11450 3250
Wire Wire Line
	11450 3250 11450 3150
$Comp
L GND #PWR033
U 1 1 5A0B7838
P 11450 3650
F 0 "#PWR033" H 11450 3400 50  0001 C CNN
F 1 "GND" H 11450 3500 50  0000 C CNN
F 2 "" H 11450 3650 60  0000 C CNN
F 3 "" H 11450 3650 60  0000 C CNN
	1    11450 3650
	1    0    0    -1  
$EndComp
$Comp
L +3.3V #PWR034
U 1 1 5A0B79C9
P 11450 3150
F 0 "#PWR034" H 11450 3000 50  0001 C CNN
F 1 "+3.3V" H 11450 3290 50  0000 C CNN
F 2 "" H 11450 3150 60  0000 C CNN
F 3 "" H 11450 3150 60  0000 C CNN
	1    11450 3150
	1    0    0    -1  
$EndComp
Wire Wire Line
	11450 3350 11350 3350
Wire Wire Line
	11350 3450 11450 3450
Wire Wire Line
	11450 3550 11350 3550
$Comp
L CONN_01X05 P1
U 1 1 5A0B99D2
P 9500 2950
F 0 "P1" H 9500 3250 50  0000 C CNN
F 1 "Programator" V 9600 2950 50  0000 C CNN
F 2 "111:Micro_USB_B_Gniazdo" H 9500 2950 60  0001 C CNN
F 3 "" H 9500 2950 60  0000 C CNN
	1    9500 2950
	-1   0    0    1   
$EndComp
Wire Wire Line
	9800 2750 9700 2750
Wire Wire Line
	9800 2650 9800 2750
Wire Wire Line
	1950 4100 2500 4100
NoConn ~ 6100 4500
$Comp
L CONN_01X04 P2
U 1 1 5A0BE54E
P 11150 3400
F 0 "P2" H 11150 3650 50  0000 C CNN
F 1 "Wolne piny" V 11250 3400 50  0000 C CNN
F 2 "111:GoldPin_1x4" H 11150 3400 60  0001 C CNN
F 3 "" H 11150 3400 60  0000 C CNN
	1    11150 3400
	-1   0    0    1   
$EndComp
Wire Wire Line
	11450 3650 11450 3550
Wire Wire Line
	6100 4100 6200 4100
Wire Wire Line
	6100 4200 6200 4200
Text GLabel 6200 4100 2    47   Input ~ 0
1
Text GLabel 6200 4200 2    47   Input ~ 0
2
Text GLabel 11450 3350 2    47   Input ~ 0
1
Text GLabel 11450 3450 2    47   Input ~ 0
2
$Comp
L CONN_01X02 P3
U 1 1 5A0C09A6
P 11150 4350
F 0 "P3" H 11150 4500 50  0000 C CNN
F 1 "ADC" V 11250 4350 50  0000 C CNN
F 2 "111:GoldPin_1x2" H 11150 4350 60  0001 C CNN
F 3 "" H 11150 4350 60  0000 C CNN
	1    11150 4350
	-1   0    0    1   
$EndComp
Wire Wire Line
	11350 4400 11450 4400
Wire Wire Line
	11450 4400 11450 4300
Wire Wire Line
	11450 4300 11350 4300
Wire Wire Line
	11450 4350 11550 4350
Connection ~ 11450 4350
Text GLabel 11550 4350 2    47   Input ~ 0
WZM_OUT
$EndSCHEMATC
